year,country,ISO Code,Region,HUMAN FREEDOM (Score),PERSONAL FREEDOM (Score),ECONOMIC FREEDOM (Score)
2016,New Zealand,NZL,Oceania,8.89,9.28,8.49
2015,New Zealand,NZL,Oceania,8.88,9.27,8.48
2014,New Zealand,NZL,Oceania,8.92,9.36,8.48
2013,Hong Kong,HKG,East Asia,8.97,8.98,8.96
2012,Hong Kong,HKG,East Asia,9,9.04,8.96
2011,Hong Kong,HKG,East Asia,9.03,9.07,8.99
2010,Hong Kong,HKG,East Asia,9.03,9.04,9.02
2009,Hong Kong,HKG,East Asia,9.05,9.02,9.09
2008,Hong Kong,HKG,East Asia,9.13,9.06,9.19
2016,Switzerland,CHE,Western Europe,8.79,9.19,8.39
2015,Hong Kong,HKG,East Asia,8.86,8.75,8.97
2014,Hong Kong,HKG,East Asia,8.89,8.78,9
2013,New Zealand,NZL,Oceania,8.87,9.26,8.48
2012,New Zealand,NZL,Oceania,8.78,9.1,8.47
2011,New Zealand,NZL,Oceania,8.79,9.19,8.39
2010,New Zealand,NZL,Oceania,8.88,9.43,8.33
2009,New Zealand,NZL,Oceania,8.8,9.33,8.27
2008,New Zealand,NZL,Oceania,8.91,9.42,8.4
2016,Hong Kong,HKG,East Asia,8.78,8.58,8.97
2015,Switzerland,CHE,Western Europe,8.81,9.26,8.37
2014,Switzerland,CHE,Western Europe,8.81,9.3,8.31
2013,Switzerland,CHE,Western Europe,8.72,9.21,8.22
2012,Switzerland,CHE,Western Europe,8.76,9.32,8.2
2011,Switzerland,CHE,Western Europe,8.78,9.32,8.23
2010,Switzerland,CHE,Western Europe,8.82,9.34,8.3
2009,Switzerland,CHE,Western Europe,8.79,9.32,8.26
2008,Switzerland,CHE,Western Europe,8.77,9.31,8.24
2016,Australia,AUS,Oceania,8.58,9.18,7.98
2015,Ireland,IRL,Western Europe,8.65,9.04,8.25
2014,Canada,CAN,North America,8.72,9.22,8.22
2013,Canada,CAN,North America,8.63,9.23,8.03
2012,Finland,FIN,Western Europe,8.63,9.44,7.81
2011,Finland,FIN,Western Europe,8.67,9.48,7.87
2010,Finland,FIN,Western Europe,8.65,9.5,7.79
2009,Canada,CAN,North America,8.64,9.27,8.01
2008,Australia,AUS,Oceania,8.69,9.29,8.08
2008,Denmark,DNK,Western Europe,8.69,9.49,7.88
2016,Canada,CAN,North America,8.57,9.15,7.98
2015,Australia,AUS,Oceania,8.61,9.21,8
2014,Australia,AUS,Oceania,8.67,9.32,8.02
2013,Denmark,DNK,Western Europe,8.6,9.52,7.68
2012,Canada,CAN,North America,8.6,9.21,7.99
2011,Canada,CAN,North America,8.61,9.27,7.95
2010,Australia,AUS,Oceania,8.64,9.27,8.02
2010,Canada,CAN,North America,8.64,9.27,8.01
2009,Australia,AUS,Oceania,8.63,9.29,7.97
2016,Denmark,DNK,Western Europe,8.55,9.33,7.77
2016,Netherlands,NLD,Western Europe,8.55,9.4,7.71
2015,Finland,FIN,Western Europe,8.56,9.41,7.71
2014,Finland,FIN,Western Europe,8.64,9.49,7.79
2013,Finland,FIN,Western Europe,8.58,9.46,7.7
2013,Norway,NOR,Western Europe,8.58,9.56,7.6
2012,Norway,NOR,Western Europe,8.57,9.57,7.58
2011,Australia,AUS,Oceania,8.6,9.18,8.01
2009,Finland,FIN,Western Europe,8.61,9.51,7.71
2008,Canada,CAN,North America,8.65,9.27,8.04
2008,Finland,FIN,Western Europe,8.65,9.5,7.81
2015,Netherlands,NLD,Western Europe,8.55,9.37,7.73
2014,Denmark,DNK,Western Europe,8.61,9.41,7.81
2012,Australia,AUS,Oceania,8.56,9.16,7.96
2011,Denmark,DNK,Western Europe,8.59,9.47,7.71
2010,Denmark,DNK,Western Europe,8.63,9.49,7.77
2009,United Kingdom,GBR,Western Europe,8.59,9.1,8.08
2016,Ireland,IRL,Western Europe,8.5,8.94,8.07
2016,United Kingdom,GBR,Western Europe,8.5,9,8
2015,Denmark,DNK,Western Europe,8.54,9.34,7.75
2014,Luxembourg,LUX,Western Europe,8.57,9.36,7.78
2014,Norway,NOR,Western Europe,8.57,9.53,7.62
2013,Australia,AUS,Oceania,8.54,9.17,7.92
2012,Denmark,DNK,Western Europe,8.52,9.49,7.56
2011,Sweden,SWE,Western Europe,8.51,9.44,7.57
2010,Norway,NOR,Western Europe,8.52,9.56,7.47
2009,Denmark,DNK,Western Europe,8.57,9.48,7.66
2008,Norway,NOR,Western Europe,8.59,9.55,7.63
2015,United Kingdom,GBR,Western Europe,8.53,9.05,8.01
2013,Ireland,IRL,Western Europe,8.53,9.02,8.04
2012,Ireland,IRL,Western Europe,8.48,8.99,7.98
2011,United Kingdom,GBR,Western Europe,8.49,9.09,7.9
2010,Sweden,SWE,Western Europe,8.51,9.44,7.58
2009,Norway,NOR,Western Europe,8.46,9.42,7.5
2008,United Kingdom,GBR,Western Europe,8.54,9.08,7.99
2016,Finland,FIN,Western Europe,8.47,9.29,7.65
2016,Norway,NOR,Western Europe,8.47,9.34,7.6
2016,Taiwan,TWN,East Asia,8.47,9.04,7.89
2015,Canada,CAN,North America,8.52,9.13,7.91
2015,Norway,NOR,Western Europe,8.52,9.39,7.65
2014,Austria,AUT,Western Europe,8.53,9.38,7.68
2014,United Kingdom,GBR,Western Europe,8.53,9.16,7.91
2013,United Kingdom,GBR,Western Europe,8.51,9.07,7.96
2012,United Kingdom,GBR,Western Europe,8.47,9.03,7.91
2011,Germany,DEU,Western Europe,8.46,9.24,7.68
2011,Norway,NOR,Western Europe,8.46,9.37,7.56
2010,United Kingdom,GBR,Western Europe,8.45,9.01,7.89
2009,Sweden,SWE,Western Europe,8.42,9.44,7.39
2008,Ireland,IRL,Western Europe,8.46,9.06,7.87
2013,Austria,AUT,Western Europe,8.48,9.32,7.63
2012,Sweden,SWE,Western Europe,8.46,9.45,7.48
2010,Estonia,EST,Eastern Europe,8.44,9.07,7.82
2009,Ireland,IRL,Western Europe,8.4,9.05,7.76
2008,Sweden,SWE,Western Europe,8.45,9.5,7.4
2008,United States,USA,North America,8.45,8.73,8.17
2015,Austria,AUT,Western Europe,8.51,9.38,7.64
2014,Germany,DEU,Western Europe,8.49,9.3,7.67
2013,Germany,DEU,Western Europe,8.44,9.22,7.66
2012,Austria,AUT,Western Europe,8.44,9.27,7.62
2011,Ireland,IRL,Western Europe,8.45,9.06,7.83
2010,Ireland,IRL,Western Europe,8.37,9.07,7.67
2010,Luxembourg,LUX,Western Europe,8.37,9.2,7.53
2009,Estonia,EST,Eastern Europe,8.38,9.06,7.7
2016,Germany,DEU,Western Europe,8.46,9.24,7.69
2015,Germany,DEU,Western Europe,8.48,9.29,7.67
2015,Luxembourg,LUX,Western Europe,8.48,9.33,7.64
2015,Sweden,SWE,Western Europe,8.48,9.32,7.65
2014,Netherlands,NLD,Western Europe,8.48,9.21,7.74
2013,Luxembourg,LUX,Western Europe,8.4,9.19,7.61
2013,Netherlands,NLD,Western Europe,8.4,9.19,7.62
2012,Germany,DEU,Western Europe,8.42,9.21,7.64
2011,Austria,AUT,Western Europe,8.41,9.18,7.65
2009,Malta,MLT,Western Europe,8.36,9.08,7.64
2008,Netherlands,NLD,Western Europe,8.41,9.24,7.58
2016,Estonia,EST,Eastern Europe,8.44,9.01,7.86
2014,Ireland,IRL,Western Europe,8.46,8.8,8.12
2012,Mauritius,MUS,Sub-Saharan Africa,8.37,8.58,8.15
2011,Netherlands,NLD,Western Europe,8.4,9.22,7.58
2010,Germany,DEU,Western Europe,8.35,9.11,7.59
2009,Austria,AUT,Western Europe,8.35,9.03,7.66
2009,Cyprus,CYP,Eastern Europe,8.35,8.92,7.77
2009,Germany,DEU,Western Europe,8.35,9.14,7.55
2008,Estonia,EST,Eastern Europe,8.4,9.04,7.77
2016,Luxembourg,LUX,Western Europe,8.43,9.26,7.6
2014,Sweden,SWE,Western Europe,8.44,9.25,7.62
2013,Sweden,SWE,Western Europe,8.36,9.27,7.44
2012,Netherlands,NLD,Western Europe,8.35,9.16,7.54
2011,Estonia,EST,Eastern Europe,8.35,8.96,7.74
2010,Netherlands,NLD,Western Europe,8.34,9.2,7.48
2008,Austria,AUT,Western Europe,8.36,9.03,7.7
2008,Luxembourg,LUX,Western Europe,8.36,9.11,7.62
2016,Austria,AUT,Western Europe,8.41,9.25,7.58
2015,Estonia,EST,Eastern Europe,8.45,8.96,7.93
2014,Estonia,EST,Eastern Europe,8.4,9,7.79
2013,Estonia,EST,Eastern Europe,8.34,8.97,7.7
2012,Estonia,EST,Eastern Europe,8.32,8.97,7.68
2011,Luxembourg,LUX,Western Europe,8.34,9.2,7.48
2011,Malta,MLT,Western Europe,8.34,9,7.67
2010,Cyprus,CYP,Eastern Europe,8.33,8.94,7.73
2016,Sweden,SWE,Western Europe,8.39,9.33,7.44
2016,United States,USA,North America,8.39,8.75,8.03
2015,Taiwan,TWN,East Asia,8.41,9.05,7.76
2014,Belgium,BEL,Western Europe,8.35,9.1,7.59
2013,Malta,MLT,Western Europe,8.3,8.93,7.66
2012,Luxembourg,LUX,Western Europe,8.31,9.17,7.46
2010,Austria,AUT,Western Europe,8.32,9.02,7.62
2009,Netherlands,NLD,Western Europe,8.33,9.22,7.44
2008,Cyprus,CYP,Eastern Europe,8.34,8.95,7.74
2015,Malta,MLT,Western Europe,8.38,9.04,7.72
2015,United States,USA,North America,8.38,8.83,7.93
2014,Malta,MLT,Western Europe,8.34,8.87,7.8
2013,Czech Rep.,CZE,Eastern Europe,8.24,9.11,7.37
2012,Japan,JPN,East Asia,8.27,8.89,7.66
2011,Mauritius,MUS,Sub-Saharan Africa,8.32,8.58,8.05
2010,Malta,MLT,Western Europe,8.31,9.03,7.59
2009,United States,USA,North America,8.26,8.57,7.95
2008,Germany,DEU,Western Europe,8.32,9.14,7.5
2016,Malta,MLT,Western Europe,8.35,8.98,7.73
2014,United States,USA,North America,8.33,8.85,7.81
2013,Mauritius,MUS,Sub-Saharan Africa,8.23,8.34,8.12
2012,United States,USA,North America,8.25,8.62,7.88
2011,Chile,CHL,Latin America & the Caribbean,8.29,8.67,7.91
2010,Chile,CHL,Latin America & the Caribbean,8.27,8.65,7.89
2009,Chile,CHL,Latin America & the Caribbean,8.25,8.63,7.87
2009,Luxembourg,LUX,Western Europe,8.25,8.98,7.51
2008,Malta,MLT,Western Europe,8.31,9.04,7.59
2016,Lithuania,LTU,Eastern Europe,8.34,8.82,7.86
2015,Lithuania,LTU,Eastern Europe,8.35,8.84,7.86
2014,Lithuania,LTU,Eastern Europe,8.32,8.73,7.91
2014,Romania,ROU,Eastern Europe,8.32,8.9,7.74
2013,Latvia,LVA,Eastern Europe,8.22,8.75,7.68
2013,Portugal,PRT,Western Europe,8.22,8.93,7.52
2012,Malta,MLT,Western Europe,8.24,8.84,7.63
2011,United States,USA,North America,8.24,8.71,7.76
2010,United States,USA,North America,8.26,8.71,7.81
2008,Iceland,ISL,Western Europe,8.28,9.21,7.34
2016,Czech Rep.,CZE,Eastern Europe,8.29,9.03,7.56
2015,Belgium,BEL,Western Europe,8.31,9.19,7.43
2012,Czech Rep.,CZE,Eastern Europe,8.23,9.03,7.42
2011,Belgium,BEL,Western Europe,8.23,9.07,7.38
2010,Spain,ESP,Western Europe,8.25,9.17,7.32
2009,France,FRA,Western Europe,8.21,9,7.43
2008,Spain,ESP,Western Europe,8.25,9.12,7.37
2016,Portugal,PRT,Western Europe,8.28,9.04,7.51
2015,Portugal,PRT,Western Europe,8.3,9.04,7.55
2014,Portugal,PRT,Western Europe,8.31,9.03,7.6
2013,Belgium,BEL,Western Europe,8.21,9.04,7.37
2012,Chile,CHL,Latin America & the Caribbean,8.22,8.63,7.81
2011,Japan,JPN,East Asia,8.19,8.9,7.49
2010,Belgium,BEL,Western Europe,8.24,9.1,7.39
2010,Mauritius,MUS,Sub-Saharan Africa,8.24,8.51,7.98
2009,Belgium,BEL,Western Europe,8.2,9.11,7.28
2008,Japan,JPN,East Asia,8.24,8.83,7.65
2016,Latvia,LVA,Eastern Europe,8.25,8.85,7.64
2015,Latvia,LVA,Eastern Europe,8.27,8.82,7.72
2014,Taiwan,TWN,East Asia,8.27,8.79,7.76
2013,Japan,JPN,East Asia,8.2,8.85,7.54
2013,Lithuania,LTU,Eastern Europe,8.2,8.67,7.72
2013,Taiwan,TWN,East Asia,8.2,8.68,7.72
2012,Belgium,BEL,Western Europe,8.19,9.03,7.35
2011,Poland,POL,Eastern Europe,8.17,9.1,7.24
2009,Japan,JPN,East Asia,8.19,8.86,7.52
2009,Singapore,SGP,South Asia,8.19,7.62,8.77
2008,Chile,CHL,Latin America & the Caribbean,8.23,8.65,7.8
2008,Slovak Rep.,SVK,Eastern Europe,8.23,8.87,7.6
2016,Romania,ROU,Eastern Europe,8.17,8.65,7.69
2015,Czech Rep.,CZE,Eastern Europe,8.26,9.04,7.49
2014,Latvia,LVA,Eastern Europe,8.26,8.71,7.81
2012,Latvia,LVA,Eastern Europe,8.14,8.72,7.56
2011,Cyprus,CYP,Eastern Europe,8.16,8.66,7.67
2011,Taiwan,TWN,East Asia,8.16,8.61,7.71
2010,Japan,JPN,East Asia,8.19,8.79,7.59
2016,Singapore,SGP,South Asia,8.16,7.48,8.84
2016,Spain,ESP,Western Europe,8.16,8.76,7.56
2015,Singapore,SGP,South Asia,8.23,7.61,8.84
2014,Czech Rep.,CZE,Eastern Europe,8.24,9.02,7.46
2014,Iceland,ISL,Western Europe,8.24,9.25,7.23
2012,Portugal,PRT,Western Europe,8.13,8.95,7.31
2010,"Korea, South",KOR,East Asia,8.17,8.83,7.51
2009,Czech Rep.,CZE,Eastern Europe,8.16,9.15,7.17
2008,Mauritius,MUS,Sub-Saharan Africa,8.21,8.47,7.96
2015,Romania,ROU,Eastern Europe,8.21,8.71,7.7
2013,United States,USA,North America,8.19,8.63,7.74
2012,Poland,POL,Eastern Europe,8.12,8.91,7.32
2012,Taiwan,TWN,East Asia,8.12,8.52,7.71
2011,Czech Rep.,CZE,Eastern Europe,8.14,9.02,7.26
2011,Portugal,PRT,Western Europe,8.14,9,7.27
2011,Slovak Rep.,SVK,Eastern Europe,8.14,8.8,7.48
2010,Czech Rep.,CZE,Eastern Europe,8.16,9.09,7.22
2009,Lithuania,LTU,Eastern Europe,8.12,8.69,7.55
2009,Slovak Rep.,SVK,Eastern Europe,8.12,8.82,7.42
2008,France,FRA,Western Europe,8.19,8.97,7.42
2016,Belgium,BEL,Western Europe,8.15,8.99,7.32
2016,Iceland,ISL,Western Europe,8.15,9.08,7.22
2016,"Korea, South",KOR,East Asia,8.15,8.77,7.53
2015,Iceland,ISL,Western Europe,8.2,9.15,7.25
2014,Singapore,SGP,South Asia,8.21,7.59,8.84
2013,Iceland,ISL,Western Europe,8.13,9.25,7.02
2010,Slovak Rep.,SVK,Eastern Europe,8.12,8.78,7.47
2008,Belgium,BEL,Western Europe,8.18,9.06,7.3
2008,Singapore,SGP,South Asia,8.18,7.44,8.92
2015,Cyprus,CYP,Eastern Europe,8.18,8.67,7.69
2015,Spain,ESP,Western Europe,8.18,8.82,7.53
2014,"Korea, South",KOR,East Asia,8.2,8.86,7.55
2014,Spain,ESP,Western Europe,8.2,8.94,7.45
2013,Romania,ROU,Eastern Europe,8.12,8.62,7.63
2012,Iceland,ISL,Western Europe,8.11,9.27,6.94
2010,France,FRA,Western Europe,8.1,8.78,7.42
2010,Hungary,HUN,Eastern Europe,8.1,8.88,7.31
2010,Singapore,SGP,South Asia,8.1,7.45,8.76
2009,Mauritius,MUS,Sub-Saharan Africa,8.11,8.36,7.85
2013,Poland,POL,Eastern Europe,8.07,8.89,7.25
2013,Slovak Rep.,SVK,Eastern Europe,8.07,8.76,7.38
2012,Lithuania,LTU,Eastern Europe,8.1,8.68,7.52
2011,Spain,ESP,Western Europe,8.13,8.8,7.45
2009,Spain,ESP,Western Europe,8.1,8.93,7.27
2008,Czech Rep.,CZE,Eastern Europe,8.17,9.13,7.21
2016,Cyprus,CYP,Eastern Europe,8.11,8.51,7.71
2015,"Korea, South",KOR,East Asia,8.17,8.8,7.55
2014,France,FRA,Western Europe,8.15,8.93,7.36
2014,Japan,JPN,East Asia,8.15,8.77,7.52
2012,Slovak Rep.,SVK,Eastern Europe,8.07,8.76,7.38
2011,Lithuania,LTU,Eastern Europe,8.12,8.74,7.5
2009,Hungary,HUN,Eastern Europe,8.08,8.9,7.27
2009,Poland,POL,Eastern Europe,8.08,8.99,7.16
2008,"Korea, South",KOR,East Asia,8.15,8.84,7.46
2016,Japan,JPN,East Asia,8.1,8.73,7.47
2015,Japan,JPN,East Asia,8.08,8.71,7.46
2013,"Korea, South",KOR,East Asia,8.01,8.67,7.36
2013,Spain,ESP,Western Europe,8.01,8.66,7.35
2012,"Korea, South",KOR,East Asia,8.06,8.66,7.45
2011,Iceland,ISL,Western Europe,8.08,9.3,6.86
2011,"Korea, South",KOR,East Asia,8.08,8.63,7.52
2010,Lithuania,LTU,Eastern Europe,8.07,8.66,7.47
2010,Uruguay,URY,Latin America & the Caribbean,8.07,8.82,7.33
2008,Portugal,PRT,Western Europe,8.1,8.99,7.21
2016,Chile,CHL,Latin America & the Caribbean,8.01,8.22,7.8
2016,France,FRA,Western Europe,8.01,8.77,7.25
2015,Chile,CHL,Latin America & the Caribbean,8.03,8.27,7.79
2014,Poland,POL,Eastern Europe,8.13,8.83,7.43
2012,Spain,ESP,Western Europe,8.02,8.68,7.35
2009,Iceland,ISL,Western Europe,8.07,9.25,6.9
2008,Latvia,LVA,Eastern Europe,8.08,8.64,7.52
2015,Slovenia,SVN,Eastern Europe,8.02,8.96,7.08
2014,Costa Rica,CRI,Latin America & the Caribbean,8.06,8.62,7.5
2013,France,FRA,Western Europe,8,8.77,7.23
2012,France,FRA,Western Europe,8.01,8.75,7.27
2011,Latvia,LVA,Eastern Europe,8.07,8.8,7.34
2010,Poland,POL,Eastern Europe,8.02,8.93,7.12
2010,Romania,ROU,Eastern Europe,8.02,8.75,7.3
2009,Romania,ROU,Eastern Europe,8.06,8.67,7.45
2008,Hungary,HUN,Eastern Europe,8.05,8.89,7.2
2016,Italy,ITA,Western Europe,7.98,8.69,7.27
2015,Italy,ITA,Western Europe,8.01,8.72,7.31
2014,Slovak Rep.,SVK,Eastern Europe,8.05,8.66,7.44
2013,Chile,CHL,Latin America & the Caribbean,7.99,8.11,7.88
2012,Romania,ROU,Eastern Europe,8,8.52,7.47
2011,France,FRA,Western Europe,8.05,8.76,7.33
2011,Hungary,HUN,Eastern Europe,8.05,8.72,7.38
2009,"Korea, South",KOR,East Asia,8.05,8.75,7.35
2008,Romania,ROU,Eastern Europe,8.03,8.74,7.32
2016,Slovenia,SVN,Eastern Europe,7.94,8.82,7.05
2015,France,FRA,Western Europe,8,8.66,7.35
2014,Chile,CHL,Latin America & the Caribbean,8.02,8.2,7.84
2014,Cyprus,CYP,Eastern Europe,8.02,8.7,7.33
2013,Italy,ITA,Western Europe,7.98,8.76,7.19
2012,Cyprus,CYP,Eastern Europe,7.99,8.51,7.47
2010,Portugal,PRT,Western Europe,8,9,7
2010,Taiwan,TWN,East Asia,8,8.29,7.7
2009,Portugal,PRT,Western Europe,8.02,8.86,7.17
2008,Lithuania,LTU,Eastern Europe,8.01,8.58,7.44
2016,Slovak Rep.,SVK,Eastern Europe,7.92,8.54,7.3
2015,Poland,POL,Eastern Europe,7.99,8.62,7.36
2013,Singapore,SGP,South Asia,7.97,7.3,8.64
2012,Italy,ITA,Western Europe,7.97,8.73,7.22
2011,Uruguay,URY,Latin America & the Caribbean,8.04,8.69,7.39
2009,Uruguay,URY,Latin America & the Caribbean,7.93,8.8,7.05
2008,Poland,POL,Eastern Europe,7.98,8.95,7
2016,Costa Rica,CRI,Latin America & the Caribbean,7.86,8.17,7.55
2016,Mauritius,MUS,Sub-Saharan Africa,7.86,7.72,8.01
2015,Slovak Rep.,SVK,Eastern Europe,7.92,8.6,7.24
2014,Italy,ITA,Western Europe,7.98,8.7,7.25
2013,Hungary,HUN,Eastern Europe,7.95,8.56,7.34
2012,Uruguay,URY,Latin America & the Caribbean,7.96,8.58,7.34
2011,Singapore,SGP,South Asia,7.99,7.21,8.76
2010,Italy,ITA,Western Europe,7.98,8.76,7.19
2009,Latvia,LVA,Eastern Europe,7.89,8.45,7.33
2008,Uruguay,URY,Latin America & the Caribbean,7.95,8.78,7.12
2015,Mauritius,MUS,Sub-Saharan Africa,7.9,7.78,8.02
2014,Slovenia,SVN,Eastern Europe,7.97,8.94,7.01
2013,Uruguay,URY,Latin America & the Caribbean,7.88,8.49,7.26
2012,Hungary,HUN,Eastern Europe,7.93,8.53,7.33
2011,Italy,ITA,Western Europe,7.98,8.75,7.22
2010,Latvia,LVA,Eastern Europe,7.94,8.66,7.23
2009,Italy,ITA,Western Europe,7.88,8.79,6.97
2008,Greece,GRC,Eastern Europe,7.94,8.77,7.1
2016,Poland,POL,Eastern Europe,7.81,8.35,7.27
2015,Costa Rica,CRI,Latin America & the Caribbean,7.88,8.26,7.51
2015,Georgia,GEO,Caucasus & Central Asia,7.88,7.78,7.98
2014,Hungary,HUN,Eastern Europe,7.96,8.57,7.36
2013,Costa Rica,CRI,Latin America & the Caribbean,7.86,8.23,7.48
2012,Singapore,SGP,South Asia,7.9,7.16,8.64
2011,Romania,ROU,Eastern Europe,7.96,8.58,7.34
2010,Israel,ISR,Middle East & North Africa,7.9,8.48,7.32
2009,Greece,GRC,Eastern Europe,7.86,8.77,6.96
2008,Italy,ITA,Western Europe,7.93,8.79,7.07
2016,Georgia,GEO,Caucasus & Central Asia,7.8,7.58,8.02
2014,Mauritius,MUS,Sub-Saharan Africa,7.93,7.84,8.02
2013,Cyprus,CYP,Eastern Europe,7.85,8.63,7.07
2012,Costa Rica,CRI,Latin America & the Caribbean,7.89,8.25,7.53
2011,Costa Rica,CRI,Latin America & the Caribbean,7.92,8.27,7.57
2010,Iceland,ISL,Western Europe,7.84,9.19,6.48
2009,Bulgaria,BGR,Eastern Europe,7.85,8.41,7.29
2008,Bahamas,BHS,Latin America & the Caribbean,7.86,8.15,7.58
2016,Bulgaria,BGR,Eastern Europe,7.78,8.16,7.41
2015,Bulgaria,BGR,Eastern Europe,7.82,8.24,7.4
2015,Hungary,HUN,Eastern Europe,7.82,8.44,7.19
2014,Georgia,GEO,Caucasus & Central Asia,7.9,7.77,8.02
2013,Bulgaria,BGR,Eastern Europe,7.84,8.35,7.33
2013,Slovenia,SVN,Eastern Europe,7.84,8.92,6.75
2012,Slovenia,SVN,Eastern Europe,7.88,8.91,6.84
2011,Bulgaria,BGR,Eastern Europe,7.86,8.36,7.37
2010,Georgia,GEO,Caucasus & Central Asia,7.82,8.14,7.5
2009,Slovenia,SVN,Eastern Europe,7.83,8.63,7.02
2008,Costa Rica,CRI,Latin America & the Caribbean,7.83,8.3,7.37
2008,Slovenia,SVN,Eastern Europe,7.83,8.64,7.01
2016,Hungary,HUN,Eastern Europe,7.74,8.26,7.22
2014,Bulgaria,BGR,Eastern Europe,7.85,8.33,7.37
2012,Bulgaria,BGR,Eastern Europe,7.82,8.27,7.37
2011,Slovenia,SVN,Eastern Europe,7.85,8.87,6.83
2010,Bulgaria,BGR,Eastern Europe,7.8,8.3,7.3
2009,Costa Rica,CRI,Latin America & the Caribbean,7.82,8.27,7.37
2016,Uruguay,URY,Latin America & the Caribbean,7.73,8.3,7.16
2015,Croatia,HRV,Eastern Europe,7.78,8.52,7.04
2014,Croatia,HRV,Eastern Europe,7.74,8.48,7
2014,Uruguay,URY,Latin America & the Caribbean,7.74,8.33,7.14
2013,Georgia,GEO,Caucasus & Central Asia,7.81,7.76,7.87
2012,Macedonia,MKD,Eastern Europe,7.75,8.26,7.23
2011,Macedonia,MKD,Eastern Europe,7.73,8.35,7.11
2010,Montenegro,MNE,Eastern Europe,7.77,8.21,7.33
2009,Taiwan,TWN,East Asia,7.81,8.24,7.39
2008,Taiwan,TWN,East Asia,7.79,8.09,7.49
2016,Croatia,HRV,Eastern Europe,7.71,8.46,6.96
2015,Uruguay,URY,Latin America & the Caribbean,7.77,8.39,7.15
2013,Croatia,HRV,Eastern Europe,7.69,8.48,6.9
2012,Croatia,HRV,Eastern Europe,7.68,8.42,6.93
2011,Greece,GRC,Eastern Europe,7.71,8.73,6.69
2010,Slovenia,SVN,Eastern Europe,7.72,8.62,6.82
2009,Georgia,GEO,Caucasus & Central Asia,7.78,8.15,7.41
2008,Bulgaria,BGR,Eastern Europe,7.71,8.24,7.17
2016,Mongolia,MNG,East Asia,7.7,8,7.4
2015,Mongolia,MNG,East Asia,7.71,8.04,7.38
2014,Mongolia,MNG,East Asia,7.71,8.1,7.32
2013,Israel,ISR,Middle East & North Africa,7.64,7.86,7.42
2013,Mongolia,MNG,East Asia,7.64,8.11,7.17
2012,Montenegro,MNE,Eastern Europe,7.66,8.08,7.25
2011,Croatia,HRV,Eastern Europe,7.69,8.48,6.9
2010,Greece,GRC,Eastern Europe,7.71,8.62,6.81
2009,Bahamas,BHS,Latin America & the Caribbean,7.75,8,7.49
2008,Montenegro,MNE,Eastern Europe,7.67,8.15,7.19
2016,Panama,PAN,Latin America & the Caribbean,7.65,7.72,7.58
2015,Israel,ISR,Middle East & North Africa,7.65,7.82,7.47
2014,Montenegro,MNE,Eastern Europe,7.64,8.1,7.17
2012,Greece,GRC,Eastern Europe,7.63,8.6,6.67
2012,Peru,PER,Latin America & the Caribbean,7.63,7.69,7.57
2011,Peru,PER,Latin America & the Caribbean,7.68,7.75,7.62
2010,Costa Rica,CRI,Latin America & the Caribbean,7.68,8.08,7.28
2009,Albania,ALB,Eastern Europe,7.59,7.86,7.31
2009,Croatia,HRV,Eastern Europe,7.59,8.41,6.78
2008,Georgia,GEO,Caucasus & Central Asia,7.56,7.54,7.57
2016,Peru,PER,Latin America & the Caribbean,7.58,7.72,7.43
2015,Panama,PAN,Latin America & the Caribbean,7.64,7.71,7.57
2014,Albania,ALB,Eastern Europe,7.62,7.75,7.48
2013,Macedonia,MKD,Eastern Europe,7.57,7.94,7.19
2013,Montenegro,MNE,Eastern Europe,7.57,8.05,7.08
2011,Israel,ISR,Middle East & North Africa,7.64,7.94,7.35
2011,Montenegro,MNE,Eastern Europe,7.64,8.15,7.14
2010,Bahamas,BHS,Latin America & the Caribbean,7.64,7.89,7.38
2008,Macedonia,MKD,Eastern Europe,7.53,8.24,6.83
2016,Albania,ALB,Eastern Europe,7.57,7.6,7.54
2015,Peru,PER,Latin America & the Caribbean,7.62,7.76,7.47
2014,Panama,PAN,Latin America & the Caribbean,7.58,7.69,7.48
2012,Bahamas,BHS,Latin America & the Caribbean,7.58,7.85,7.31
2010,Peru,PER,Latin America & the Caribbean,7.62,7.6,7.64
2009,Montenegro,MNE,Eastern Europe,7.58,8,7.16
2008,Fiji,FJI,Oceania,7.52,7.79,7.26
2016,Israel,ISR,Middle East & North Africa,7.52,7.54,7.49
2015,Albania,ALB,Eastern Europe,7.56,7.59,7.53
2014,Peru,PER,Latin America & the Caribbean,7.55,7.57,7.53
2013,Panama,PAN,Latin America & the Caribbean,7.55,7.72,7.38
2012,Israel,ISR,Middle East & North Africa,7.57,7.77,7.36
2011,Bahamas,BHS,Latin America & the Caribbean,7.63,7.94,7.32
2010,Albania,ALB,Eastern Europe,7.55,7.76,7.35
2010,Macedonia,MKD,Eastern Europe,7.55,8.17,6.93
2009,Peru,PER,Latin America & the Caribbean,7.54,7.57,7.51
2008,Albania,ALB,Eastern Europe,7.5,7.78,7.22
2008,Peru,PER,Latin America & the Caribbean,7.5,7.49,7.5
2016,Bahamas,BHS,Latin America & the Caribbean,7.4,7.45,7.34
2015,Seychelles,SYC,Sub-Saharan Africa,7.54,7.75,7.33
2014,Greece,GRC,Eastern Europe,7.48,8.14,6.81
2013,Greece,GRC,Eastern Europe,7.49,8.09,6.88
2013,Peru,PER,Latin America & the Caribbean,7.49,7.45,7.52
2012,Armenia,ARM,Caucasus & Central Asia,7.56,7.37,7.75
2012,Georgia,GEO,Caucasus & Central Asia,7.56,7.38,7.75
2011,Mongolia,MNG,East Asia,7.58,7.98,7.17
2009,Panama,PAN,Latin America & the Caribbean,7.52,7.79,7.25
2016,Serbia,SRB,Eastern Europe,7.35,7.85,6.85
2015,Cape Verde,CPV,Sub-Saharan Africa,7.52,8.36,6.67
2014,Israel,ISR,Middle East & North Africa,7.46,7.46,7.45
2011,Armenia,ARM,Caucasus & Central Asia,7.56,7.41,7.71
2010,Armenia,ARM,Caucasus & Central Asia,7.49,7.42,7.56
2009,Israel,ISR,Middle East & North Africa,7.5,7.85,7.14
2008,Panama,PAN,Latin America & the Caribbean,7.49,7.75,7.24
2016,Montenegro,MNE,Eastern Europe,7.34,7.63,7.04
2015,Bahamas,BHS,Latin America & the Caribbean,7.43,7.5,7.35
2014,El Salvador,SLV,Latin America & the Caribbean,7.42,7.49,7.35
2013,Armenia,ARM,Caucasus & Central Asia,7.4,7.1,7.69
2012,Panama,PAN,Latin America & the Caribbean,7.53,7.73,7.34
2011,Georgia,GEO,Caucasus & Central Asia,7.55,7.46,7.64
2010,Panama,PAN,Latin America & the Caribbean,7.45,7.68,7.22
2009,Armenia,ARM,Caucasus & Central Asia,7.48,7.41,7.55
2009,Macedonia,MKD,Eastern Europe,7.48,8.08,6.89
2008,Armenia,ARM,Caucasus & Central Asia,7.46,7.32,7.59
2016,Cape Verde,CPV,Sub-Saharan Africa,7.33,7.99,6.68
2015,Serbia,SRB,Eastern Europe,7.37,7.98,6.76
2014,Bosnia and Herzegovina,BIH,Eastern Europe,7.41,8.04,6.78
2013,Albania,ALB,Eastern Europe,7.39,7.51,7.27
2012,Mongolia,MNG,East Asia,7.52,8.02,7.02
2011,Albania,ALB,Eastern Europe,7.5,7.76,7.24
2010,Bosnia and Herzegovina,BIH,Eastern Europe,7.42,8.2,6.63
2008,Croatia,HRV,Eastern Europe,7.4,8.08,6.72
2008,El Salvador,SLV,Latin America & the Caribbean,7.4,7.27,7.53
2008,Israel,ISR,Middle East & North Africa,7.4,7.59,7.2
2016,Seychelles,SYC,Sub-Saharan Africa,7.3,7.37,7.23
2015,Montenegro,MNE,Eastern Europe,7.36,7.98,6.74
2014,Serbia,SRB,Eastern Europe,7.39,8.06,6.71
2013,Bahamas,BHS,Latin America & the Caribbean,7.37,7.42,7.33
2012,Albania,ALB,Eastern Europe,7.44,7.67,7.2
2011,Panama,PAN,Latin America & the Caribbean,7.43,7.73,7.13
2010,Cambodia,KHM,South Asia,7.41,7.75,7.08
2010,Croatia,HRV,Eastern Europe,7.41,8.15,6.68
2009,Bosnia and Herzegovina,BIH,Eastern Europe,7.39,8.23,6.56
2016,Fiji,FJI,Oceania,7.29,7.79,6.79
2015,Bosnia and Herzegovina,BIH,Eastern Europe,7.32,8,6.63
2015,Macedonia,MKD,Eastern Europe,7.32,7.47,7.16
2014,Bahamas,BHS,Latin America & the Caribbean,7.37,7.42,7.32
2013,Bosnia and Herzegovina,BIH,Eastern Europe,7.31,8.01,6.61
2013,Cape Verde,CPV,Sub-Saharan Africa,7.31,8.01,6.62
2012,Cape Verde,CPV,Sub-Saharan Africa,7.38,8.2,6.56
2011,Cape Verde,CPV,Sub-Saharan Africa,7.39,8.25,6.53
2009,Barbados,BRD,Latin America & the Caribbean,7.37,8.18,6.56
2016,Macedonia,MKD,Eastern Europe,7.27,7.41,7.13
2014,Armenia,ARM,Caucasus & Central Asia,7.31,6.92,7.7
2012,Barbados,BRD,Latin America & the Caribbean,7.35,8.04,6.67
2011,Bosnia and Herzegovina,BIH,Eastern Europe,7.35,7.99,6.7
2010,Cape Verde,CPV,Sub-Saharan Africa,7.35,8.31,6.38
2009,Fiji,FJI,Oceania,7.32,7.56,7.08
2008,Belize,BLZ,Latin America & the Caribbean,7.34,7.35,7.32
2016,Armenia,ARM,Caucasus & Central Asia,7.24,6.91,7.57
2016,Ghana,GHA,Sub-Saharan Africa,7.24,7.87,6.6
2015,Suriname,SUR,Latin America & the Caribbean,7.3,7.75,6.85
2014,Guatemala,GTM,Latin America & the Caribbean,7.3,6.95,7.65
2013,Barbados,BRD,Latin America & the Caribbean,7.29,7.9,6.68
2012,Bosnia and Herzegovina,BIH,Eastern Europe,7.33,7.87,6.79
2011,Barbados,BRD,Latin America & the Caribbean,7.33,8.03,6.63
2010,Barbados,BRD,Latin America & the Caribbean,7.33,8.03,6.63
2009,Mongolia,MNG,East Asia,7.3,7.56,7.03
2008,Bosnia and Herzegovina,BIH,Eastern Europe,7.28,8,6.56
2008,Jamaica,JAM,Latin America & the Caribbean,7.28,7.29,7.27
2015,Cambodia,KHM,South Asia,7.26,7.31,7.2
2015,Fiji,FJI,Oceania,7.26,7.7,6.82
2015,Greece,GRC,Eastern Europe,7.26,8.07,6.45
2015,South Africa,ZAF,Sub-Saharan Africa,7.26,7.67,6.84
2014,Cape Verde,CPV,Sub-Saharan Africa,7.28,8.01,6.56
2014,Dominican Rep.,DOM,Latin America & the Caribbean,7.28,7.29,7.26
2013,Ghana,GHA,Sub-Saharan Africa,7.23,7.92,6.55
2013,Jamaica,JAM,Latin America & the Caribbean,7.23,7.17,7.3
2012,Belize,BLZ,Latin America & the Caribbean,7.18,7.23,7.13
2011,Belize,BLZ,Latin America & the Caribbean,7.26,7.4,7.12
2010,Mongolia,MNG,East Asia,7.32,7.58,7.06
2009,Jamaica,JAM,Latin America & the Caribbean,7.28,7.29,7.26
2016,Bosnia and Herzegovina,BIH,Eastern Europe,7.23,7.86,6.6
2012,El Salvador,SLV,Latin America & the Caribbean,7.14,7.2,7.09
2011,Cambodia,KHM,South Asia,7.24,7.51,6.98
2010,Nicaragua,NIC,Latin America & the Caribbean,7.29,7.4,7.18
2009,Thailand,THA,South Asia,7.26,7.84,6.69
2008,Thailand,THA,South Asia,7.27,7.75,6.8
2016,Jamaica,JAM,Latin America & the Caribbean,7.22,7.27,7.18
2014,Barbados,BRD,Latin America & the Caribbean,7.26,7.88,6.63
2013,El Salvador,SLV,Latin America & the Caribbean,7.2,7.21,7.2
2012,Cambodia,KHM,South Asia,7.13,7.34,6.92
2012,Suriname,SUR,Latin America & the Caribbean,7.13,7.62,6.64
2011,Turkey,TUR,Middle East & North Africa,7.22,7.41,7.03
2010,Fiji,FJI,Oceania,7.25,7.56,6.93
2010,Suriname,SUR,Latin America & the Caribbean,7.25,7.85,6.64
2009,Ghana,GHA,Sub-Saharan Africa,7.25,7.63,6.87
2008,Nicaragua,NIC,Latin America & the Caribbean,7.26,7.41,7.12
2016,Cambodia,KHM,South Asia,7.2,7.24,7.17
2016,Greece,GRC,Eastern Europe,7.2,7.95,6.46
2014,Cambodia,KHM,South Asia,7.24,7.33,7.16
2014,Jamaica,JAM,Latin America & the Caribbean,7.24,7.36,7.13
2013,Cambodia,KHM,South Asia,7.18,7.19,7.17
2013,Dominican Rep.,DOM,Latin America & the Caribbean,7.18,7.11,7.24
2011,Fiji,FJI,Oceania,7.2,7.36,7.04
2011,Ghana,GHA,Sub-Saharan Africa,7.2,7.65,6.76
2009,Rwanda,RWA,Sub-Saharan Africa,7.23,7.57,6.89
2009,Serbia,SRB,Eastern Europe,7.23,7.88,6.58
2008,Serbia,SRB,Eastern Europe,7.23,7.92,6.55
2015,Jamaica,JAM,Latin America & the Caribbean,7.24,7.24,7.25
2012,Paraguay,PRY,Latin America & the Caribbean,7.11,7.34,6.89
2010,El Salvador,SLV,Latin America & the Caribbean,7.22,7.23,7.21
2008,Ghana,GHA,Sub-Saharan Africa,7.21,7.61,6.82
2008,Moldova,MDA,Eastern Europe,7.21,7.51,6.91
2016,South Africa,ZAF,Sub-Saharan Africa,7.17,7.7,6.65
2015,Armenia,ARM,Caucasus & Central Asia,7.23,6.87,7.59
2014,Macedonia,MKD,Eastern Europe,7.19,7.14,7.24
2013,Serbia,SRB,Eastern Europe,7.15,7.63,6.68
2012,Fiji,FJI,Oceania,7.09,7.35,6.84
2012,Philippines,PHL,South Asia,7.09,6.9,7.27
2012,Turkey,TUR,Middle East & North Africa,7.09,7.19,6.99
2011,South Africa,ZAF,Sub-Saharan Africa,7.18,7.24,7.12
2010,Guatemala,GTM,Latin America & the Caribbean,7.21,7.27,7.15
2009,Belize,BLZ,Latin America & the Caribbean,7.21,7.36,7.07
2016,Belize,BLZ,Latin America & the Caribbean,7.15,7.43,6.86
2016,Botswana,BWA,Sub-Saharan Africa,7.15,6.88,7.43
2015,Barbados,BRD,Latin America & the Caribbean,7.16,7.82,6.5
2014,South Africa,ZAF,Sub-Saharan Africa,7.18,7.5,6.87
2013,Guatemala,GTM,Latin America & the Caribbean,7.14,6.62,7.66
2013,South Africa,ZAF,Sub-Saharan Africa,7.14,7.2,7.08
2011,Philippines,PHL,South Asia,7.12,7.03,7.22
2010,Thailand,THA,South Asia,7.2,7.75,6.65
2009,Nicaragua,NIC,Latin America & the Caribbean,7.2,7.31,7.09
2008,Guatemala,GTM,Latin America & the Caribbean,7.2,7.19,7.21
2015,Dominican Rep.,DOM,Latin America & the Caribbean,7.13,7.02,7.24
2015,El Salvador,SLV,Latin America & the Caribbean,7.13,7.12,7.14
2014,Ghana,GHA,Sub-Saharan Africa,7.14,7.87,6.41
2011,Dominican Rep.,DOM,Latin America & the Caribbean,7.08,6.97,7.18
2011,Guyana,GUY,Latin America & the Caribbean,7.08,7.85,6.31
2011,Moldova,MDA,Eastern Europe,7.08,7.46,6.7
2010,Philippines,PHL,South Asia,7.18,7.32,7.05
2009,Moldova,MDA,Eastern Europe,7.19,7.73,6.66
2008,Barbados,BRD,Latin America & the Caribbean,7.18,8.14,6.22
2016,Guatemala,GTM,Latin America & the Caribbean,7.09,6.55,7.64
2014,Seychelles,SYC,Sub-Saharan Africa,7.06,6.65,7.46
2013,Paraguay,PRY,Latin America & the Caribbean,7.12,7.29,6.95
2012,South Africa,ZAF,Sub-Saharan Africa,7.07,7.16,6.98
2010,Ghana,GHA,Sub-Saharan Africa,7.17,7.58,6.75
2009,Guatemala,GTM,Latin America & the Caribbean,7.17,7.18,7.15
2008,Mongolia,MNG,East Asia,7.15,7.56,6.73
2016,Barbados,BRD,Latin America & the Caribbean,7.07,7.71,6.43
2016,Suriname,SUR,Latin America & the Caribbean,7.07,7.79,6.36
2015,Ghana,GHA,Sub-Saharan Africa,7.12,7.71,6.52
2014,Fiji,FJI,Oceania,7.05,7.48,6.63
2013,Nicaragua,NIC,Latin America & the Caribbean,7.11,6.88,7.34
2012,Jamaica,JAM,Latin America & the Caribbean,7.06,6.98,7.14
2010,Serbia,SRB,Eastern Europe,7.14,7.73,6.56
2009,El Salvador,SLV,Latin America & the Caribbean,7.16,6.92,7.4
2008,Bahrain,BHR,Middle East & North Africa,7.1,6.78,7.42
2015,Guatemala,GTM,Latin America & the Caribbean,7.11,6.53,7.69
2014,Haiti,HTI,Latin America & the Caribbean,7.03,7.47,6.58
2014,Paraguay,PRY,Latin America & the Caribbean,7.03,7.18,6.87
2013,Belize,BLZ,Latin America & the Caribbean,7.09,7.14,7.03
2013,Turkey,TUR,Middle East & North Africa,7.09,7.32,6.86
2012,Moldova,MDA,Eastern Europe,7.05,7.46,6.64
2011,Serbia,SRB,Eastern Europe,7.07,7.49,6.64
2010,Brazil,BRA,Latin America & the Caribbean,7.11,7.77,6.46
2009,Namibia,NAM,Sub-Saharan Africa,7.06,7.19,6.93
2008,Philippines,PHL,South Asia,7.06,7.39,6.72
2016,Dominican Rep.,DOM,Latin America & the Caribbean,7.06,6.94,7.18
2015,Botswana,BWA,Sub-Saharan Africa,7.07,6.79,7.35
2012,Dominican Rep.,DOM,Latin America & the Caribbean,7.03,7.03,7.03
2012,Ghana,GHA,Sub-Saharan Africa,7.03,7.63,6.44
2011,Brazil,BRA,Latin America & the Caribbean,7.04,7.63,6.45
2011,Suriname,SUR,Latin America & the Caribbean,7.04,7.73,6.35
2010,Jamaica,JAM,Latin America & the Caribbean,7.1,7.22,6.97
2009,Bahrain,BHR,Middle East & North Africa,7.02,6.75,7.29
2008,Argentina,ARG,Latin America & the Caribbean,7.04,8.19,5.88
2016,El Salvador,SLV,Latin America & the Caribbean,7.03,6.92,7.15
2015,Rwanda,RWA,Sub-Saharan Africa,7.06,6.55,7.56
2014,Botswana,BWA,Sub-Saharan Africa,7.02,6.8,7.24
2014,Suriname,SUR,Latin America & the Caribbean,7.02,7.26,6.78
2013,Seychelles,SYC,Sub-Saharan Africa,7.03,6.81,7.24
2010,Dominican Rep.,DOM,Latin America & the Caribbean,7.07,6.97,7.16
2009,Argentina,ARG,Latin America & the Caribbean,7,8.18,5.82
2009,Brazil,BRA,Latin America & the Caribbean,7,7.75,6.24
2008,Brazil,BRA,Latin America & the Caribbean,7.01,7.72,6.31
2008,Honduras,HND,Latin America & the Caribbean,7.01,6.73,7.28
2016,Rwanda,RWA,Sub-Saharan Africa,6.97,6.47,7.48
2015,Philippines,PHL,South Asia,7.05,6.68,7.43
2013,Bolivia,BOL,Latin America & the Caribbean,7.02,7.65,6.4
2012,Guyana,GUY,Latin America & the Caribbean,7.01,7.71,6.3
2012,Serbia,SRB,Eastern Europe,7.01,7.47,6.55
2011,Paraguay,PRY,Latin America & the Caribbean,7.03,7.27,6.8
2010,Namibia,NAM,Sub-Saharan Africa,7.04,7.24,6.84
2016,Paraguay,PRY,Latin America & the Caribbean,6.96,6.97,6.95
2015,Namibia,NAM,Sub-Saharan Africa,6.97,7.33,6.61
2014,Namibia,NAM,Sub-Saharan Africa,7,7.26,6.75
2014,Philippines,PHL,South Asia,7,6.61,7.4
2013,Moldova,MDA,Eastern Europe,7,7.45,6.55
2013,Namibia,NAM,Sub-Saharan Africa,7,7.38,6.63
2013,Suriname,SUR,Latin America & the Caribbean,7,7.29,6.72
2011,Nicaragua,NIC,Latin America & the Caribbean,7.02,6.74,7.31
2010,Paraguay,PRY,Latin America & the Caribbean,7.03,7.32,6.74
2009,Dominican Rep.,DOM,Latin America & the Caribbean,6.99,7.04,6.95
2008,Namibia,NAM,Sub-Saharan Africa,7,7.18,6.83
2016,Philippines,PHL,South Asia,6.92,6.5,7.34
2015,Belize,BLZ,Latin America & the Caribbean,6.95,7.09,6.81
2015,Paraguay,PRY,Latin America & the Caribbean,6.95,7,6.91
2012,Guatemala,GTM,Latin America & the Caribbean,7,6.58,7.41
2012,Nicaragua,NIC,Latin America & the Caribbean,7,6.64,7.36
2011,Thailand,THA,South Asia,7.01,7.42,6.59
2010,Moldova,MDA,Eastern Europe,7.02,7.45,6.58
2009,Turkey,TUR,Middle East & North Africa,6.96,7.14,6.79
2008,Kazakhstan,KAZ,Caucasus & Central Asia,6.95,6.87,7.04
2008,Rwanda,RWA,Sub-Saharan Africa,6.95,7.15,6.75
2016,Namibia,NAM,Sub-Saharan Africa,6.9,7.39,6.4
2014,Nicaragua,NIC,Latin America & the Caribbean,6.97,6.65,7.3
2011,Jamaica,JAM,Latin America & the Caribbean,7,7,7
2010,Indonesia,IDN,South Asia,7.01,7.16,6.85
2009,Philippines,PHL,South Asia,6.95,7.24,6.66
2016,Bahrain,BHR,Middle East & North Africa,6.85,6.14,7.56
2016,Haiti,HTI,Latin America & the Caribbean,6.85,7.18,6.51
2016,Jordan,JOR,Middle East & North Africa,6.85,6.24,7.46
2016,Mexico,MEX,Latin America & the Caribbean,6.85,6.8,6.9
2016,Moldova,MDA,Eastern Europe,6.85,7.06,6.64
2016,Nicaragua,NIC,Latin America & the Caribbean,6.85,6.43,7.27
2015,Mexico,MEX,Latin America & the Caribbean,6.9,6.91,6.88
2014,Rwanda,RWA,Sub-Saharan Africa,6.95,6.48,7.43
2013,Indonesia,IDN,South Asia,6.97,6.93,7.01
2012,Bolivia,BOL,Latin America & the Caribbean,6.99,7.6,6.38
2011,El Salvador,SLV,Latin America & the Caribbean,6.99,6.84,7.14
2011,Malawi,MWI,Sub-Saharan Africa,6.99,7.47,6.52
2011,Zambia,ZMB,Sub-Saharan Africa,6.99,6.64,7.34
2010,Turkey,TUR,Middle East & North Africa,6.99,7.15,6.83
2009,Haiti,HTI,Latin America & the Caribbean,6.93,7.07,6.79
2008,Haiti,HTI,Latin America & the Caribbean,6.94,7.12,6.76
2015,Bhutan,BTN,South Asia,6.89,6.66,7.11
2014,Belize,BLZ,Latin America & the Caribbean,6.94,6.98,6.9
2013,Rwanda,RWA,Sub-Saharan Africa,6.96,6.52,7.4
2012,Namibia,NAM,Sub-Saharan Africa,6.97,7.15,6.79
2010,Rwanda,RWA,Sub-Saharan Africa,6.97,6.71,7.23
2009,Bolivia,BOL,Latin America & the Caribbean,6.92,7.54,6.3
2009,Kazakhstan,KAZ,Caucasus & Central Asia,6.92,6.77,7.07
2008,Mexico,MEX,Latin America & the Caribbean,6.92,7.19,6.66
2008,Turkey,TUR,Middle East & North Africa,6.92,6.98,6.86
2015,Haiti,HTI,Latin America & the Caribbean,6.88,7.21,6.54
2015,Jordan,JOR,Middle East & North Africa,6.88,6.29,7.47
2014,Jordan,JOR,Middle East & North Africa,6.92,6.3,7.54
2014,Mexico,MEX,Latin America & the Caribbean,6.92,6.99,6.85
2013,Pap. New Guinea,PNG,Oceania,6.93,6.9,6.96
2012,Ukraine,UKR,Eastern Europe,6.93,7.61,6.24
2010,Belize,BLZ,Latin America & the Caribbean,6.95,7.38,6.52
2010,Pap. New Guinea,PNG,Oceania,6.95,7.02,6.87
2013,Trinidad and Tobago,TTO,Latin America & the Caribbean,6.92,7.07,6.77
2012,Jordan,JOR,Middle East & North Africa,6.89,6.21,7.56
2012,Malawi,MWI,Sub-Saharan Africa,6.89,7.6,6.18
2011,Namibia,NAM,Sub-Saharan Africa,6.96,7.32,6.61
2009,Indonesia,IDN,South Asia,6.87,7.2,6.55
2008,Pap. New Guinea,PNG,Oceania,6.91,7.06,6.77
2015,Honduras,HND,Latin America & the Caribbean,6.87,6.4,7.35
2014,Honduras,HND,Latin America & the Caribbean,6.91,6.55,7.26
2013,Benin,BEN,Sub-Saharan Africa,6.91,7.38,6.44
2011,Bolivia,BOL,Latin America & the Caribbean,6.94,7.56,6.31
2011,Indonesia,IDN,South Asia,6.94,7.01,6.87
2010,Kazakhstan,KAZ,Caucasus & Central Asia,6.93,6.91,6.94
2009,Honduras,HND,Latin America & the Caribbean,6.86,6.56,7.16
2008,Paraguay,PRY,Latin America & the Caribbean,6.9,7.3,6.5
2015,Kazakhstan,KAZ,Caucasus & Central Asia,6.84,6.42,7.26
2015,Moldova,MDA,Eastern Europe,6.84,7.1,6.57
2014,Trinidad and Tobago,TTO,Latin America & the Caribbean,6.9,7.06,6.75
2013,Botswana,BWA,Sub-Saharan Africa,6.89,6.52,7.27
2013,Jordan,JOR,Middle East & North Africa,6.89,6.12,7.65
2013,Nepal,NPL,South Asia,6.89,7.41,6.36
2012,Indonesia,IDN,South Asia,6.88,6.92,6.84
2012,Thailand,THA,South Asia,6.88,7.19,6.58
2012,Zambia,ZMB,Sub-Saharan Africa,6.88,6.58,7.19
2010,South Africa,ZAF,Sub-Saharan Africa,6.92,6.8,7.05
2009,Paraguay,PRY,Latin America & the Caribbean,6.85,7.14,6.56
2008,Botswana,BWA,Sub-Saharan Africa,6.84,6.82,6.85
2016,Trinidad and Tobago,TTO,Latin America & the Caribbean,6.83,6.92,6.73
2014,Moldova,MDA,Eastern Europe,6.89,7.13,6.65
2011,India,IND,South Asia,6.93,7.29,6.57
2011,Lebanon,LBN,Middle East & North Africa,6.93,6.69,7.18
2011,Ukraine,UKR,Eastern Europe,6.93,7.7,6.15
2010,Botswana,BWA,Sub-Saharan Africa,6.91,6.8,7.02
2010,Tajikistan,TJK,Caucasus & Central Asia,6.91,7.54,6.28
2009,Guyana,GUY,Latin America & the Caribbean,6.83,7.34,6.33
2009,Mexico,MEX,Latin America & the Caribbean,6.83,7.14,6.53
2009,Ukraine,UKR,Eastern Europe,6.83,7.77,5.89
2008,Trinidad and Tobago,TTO,Latin America & the Caribbean,6.81,6.87,6.74
2016,Kenya,KEN,Sub-Saharan Africa,6.82,6.45,7.2
2015,Nicaragua,NIC,Latin America & the Caribbean,6.82,6.36,7.27
2014,Bhutan,BTN,South Asia,6.86,6.72,6.99
2008,Kyrgyz Republic,KGZ,Caucasus & Central Asia,6.8,6.78,6.82
2008,Ukraine,UKR,Eastern Europe,6.8,7.73,5.87
2016,Bhutan,BTN,South Asia,6.81,6.6,7.02
2016,Ecuador,ECU,Latin America & the Caribbean,6.81,7.55,6.06
2015,Ecuador,ECU,Latin America & the Caribbean,6.77,7.45,6.09
2014,Kazakhstan,KAZ,Caucasus & Central Asia,6.85,6.47,7.23
2013,Bhutan,BTN,South Asia,6.87,6.82,6.93
2012,India,IND,South Asia,6.87,7.2,6.54
2010,Bahrain,BHR,Middle East & North Africa,6.9,6.32,7.47
2015,Trinidad and Tobago,TTO,Latin America & the Caribbean,6.76,7.04,6.48
2014,Madagascar,MDG,Sub-Saharan Africa,6.83,7.22,6.44
2013,Fiji,FJI,Oceania,6.86,7.28,6.44
2012,Botswana,BWA,Sub-Saharan Africa,6.83,6.41,7.25
2012,Brazil,BRA,Latin America & the Caribbean,6.83,7.42,6.24
2012,Brunei Darussalam,BRN,South Asia,6.83,6.59,7.07
2011,Guatemala,GTM,Latin America & the Caribbean,6.9,6.57,7.22
2011,Rwanda,RWA,Sub-Saharan Africa,6.9,6.35,7.45
2010,Argentina,ARG,Latin America & the Caribbean,6.89,8.18,5.59
2009,South Africa,ZAF,Sub-Saharan Africa,6.81,6.81,6.82
2008,Indonesia,IDN,South Asia,6.79,7.18,6.39
2016,Indonesia,IDN,South Asia,6.77,6.38,7.16
2016,Uganda,UGA,Sub-Saharan Africa,6.77,6.13,7.41
2015,Bahrain,BHR,Middle East & North Africa,6.74,6.12,7.37
2014,Liberia,LBR,Sub-Saharan Africa,6.82,6.46,7.18
2013,Guyana,GUY,Latin America & the Caribbean,6.84,7.63,6.04
2010,Bolivia,BOL,Latin America & the Caribbean,6.87,7.38,6.35
2009,Botswana,BWA,Sub-Saharan Africa,6.8,6.84,6.76
2009,Pap. New Guinea,PNG,Oceania,6.8,6.78,6.83
2008,United Arab Emirates,ARE,Middle East & North Africa,6.78,5.89,7.68
2015,Colombia,COL,Latin America & the Caribbean,6.73,6.91,6.55
2015,Guyana,GUY,Latin America & the Caribbean,6.73,6.95,6.52
2015,Nepal,NPL,South Asia,6.73,6.95,6.5
2014,Bolivia,BOL,Latin America & the Caribbean,6.78,7.34,6.21
2013,Burkina Faso,BFA,Sub-Saharan Africa,6.83,7.7,5.96
2013,Madagascar,MDG,Sub-Saharan Africa,6.83,7.07,6.6
2011,Botswana,BWA,Sub-Saharan Africa,6.88,6.54,7.22
2010,Honduras,HND,Latin America & the Caribbean,6.85,6.49,7.21
2008,Burkina Faso,BFA,Sub-Saharan Africa,6.76,7.57,5.95
2008,Colombia,COL,Latin America & the Caribbean,6.76,6.93,6.6
2008,South Africa,ZAF,Sub-Saharan Africa,6.76,6.8,6.72
2016,Colombia,COL,Latin America & the Caribbean,6.76,7.02,6.5
2014,Nepal,NPL,South Asia,6.77,7.09,6.45
2012,Rwanda,RWA,Sub-Saharan Africa,6.82,6.32,7.32
2011,Argentina,ARG,Latin America & the Caribbean,6.86,8.13,5.58
2010,Lebanon,LBN,Middle East & North Africa,6.83,6.45,7.21
2009,Kyrgyz Republic,KGZ,Caucasus & Central Asia,6.78,6.64,6.91
2009,Malawi,MWI,Sub-Saharan Africa,6.78,7.34,6.22
2016,Burkina Faso,BFA,Sub-Saharan Africa,6.75,7.46,6.05
2016,Pap. New Guinea,PNG,Oceania,6.75,7.25,6.25
2014,Colombia,COL,Latin America & the Caribbean,6.76,6.95,6.58
2014,Turkey,TUR,Middle East & North Africa,6.76,6.64,6.87
2013,Philippines,PHL,South Asia,6.8,6.07,7.54
2012,Trinidad and Tobago,TTO,Latin America & the Caribbean,6.79,6.99,6.6
2011,Timor-Leste,TLS,South Asia,6.85,6.8,6.89
2010,Colombia,COL,Latin America & the Caribbean,6.81,6.88,6.74
2015,Kenya,KEN,Sub-Saharan Africa,6.72,6.32,7.11
2013,Mexico,MEX,Latin America & the Caribbean,6.78,6.79,6.77
2012,Kazakhstan,KAZ,Caucasus & Central Asia,6.76,6.38,7.14
2011,Jordan,JOR,Middle East & North Africa,6.84,6.2,7.48
2010,Ukraine,UKR,Eastern Europe,6.8,7.7,5.9
2009,Trinidad and Tobago,TTO,Latin America & the Caribbean,6.76,6.92,6.61
2008,Bolivia,BOL,Latin America & the Caribbean,6.73,7.37,6.09
2016,Benin,BEN,Sub-Saharan Africa,6.74,7.5,5.98
2016,Kazakhstan,KAZ,Caucasus & Central Asia,6.74,6.38,7.11
2015,Indonesia,IDN,South Asia,6.71,6.43,7
2015,Uganda,UGA,Sub-Saharan Africa,6.71,6.12,7.3
2014,Benin,BEN,Sub-Saharan Africa,6.75,7.56,5.94
2013,Ukraine,UKR,Eastern Europe,6.77,7.49,6.05
2012,Madagascar,MDG,Sub-Saharan Africa,6.75,7.01,6.48
2011,Trinidad and Tobago,TTO,Latin America & the Caribbean,6.83,7.01,6.65
2010,Malawi,MWI,Sub-Saharan Africa,6.77,7.27,6.27
2010,Nepal,NPL,South Asia,6.77,7.35,6.2
2009,Colombia,COL,Latin America & the Caribbean,6.75,6.8,6.7
2008,Ecuador,ECU,Latin America & the Caribbean,6.72,7.42,6.02
2008,Malawi,MWI,Sub-Saharan Africa,6.72,7.27,6.17
2014,Uganda,UGA,Sub-Saharan Africa,6.73,6.16,7.31
2013,Tanzania,TZA,Sub-Saharan Africa,6.76,6.67,6.85
2012,Tajikistan,TJK,Caucasus & Central Asia,6.74,6.74,6.75
2011,Bahrain,BHR,Middle East & North Africa,6.8,6.1,7.49
2011,Nepal,NPL,South Asia,6.8,7.48,6.12
2009,Nepal,NPL,South Asia,6.71,7.57,5.86
2016,Bolivia,BOL,Latin America & the Caribbean,6.72,7.21,6.23
2016,Honduras,HND,Latin America & the Caribbean,6.72,6.39,7.06
2016,Nepal,NPL,South Asia,6.72,6.91,6.53
2015,Bolivia,BOL,Latin America & the Caribbean,6.7,7.35,6.05
2015,Burkina Faso,BFA,Sub-Saharan Africa,6.7,7.37,6.03
2014,Indonesia,IDN,South Asia,6.71,6.4,7.02
2013,Ecuador,ECU,Latin America & the Caribbean,6.75,7.63,5.88
2013,Thailand,THA,South Asia,6.75,6.88,6.61
2012,Kenya,KEN,Sub-Saharan Africa,6.72,6.34,7.09
2010,Burkina Faso,BFA,Sub-Saharan Africa,6.76,7.58,5.93
2009,Kuwait,KWT,Middle East & North Africa,6.68,6.27,7.1
2008,Nepal,NPL,South Asia,6.71,7.4,6.03
2014,Qatar,QAT,Middle East & North Africa,6.68,5.68,7.68
2012,Nepal,NPL,South Asia,6.7,7.27,6.12
2011,Brunei Darussalam,BRN,South Asia,6.79,6.66,6.92
2011,Madagascar,MDG,Sub-Saharan Africa,6.79,7.37,6.21
2010,Timor-Leste,TLS,South Asia,6.74,7.49,6
2009,Burkina Faso,BFA,Sub-Saharan Africa,6.67,7.43,5.9
2008,Guyana,GUY,Latin America & the Caribbean,6.68,6.95,6.4
2015,Benin,BEN,Sub-Saharan Africa,6.68,7.58,5.78
2015,Pap. New Guinea,PNG,Oceania,6.68,7.19,6.17
2014,Bahrain,BHR,Middle East & North Africa,6.67,5.99,7.36
2014,Burkina Faso,BFA,Sub-Saharan Africa,6.67,7.31,6.02
2014,Malawi,MWI,Sub-Saharan Africa,6.67,7.41,5.94
2013,Haiti,HTI,Latin America & the Caribbean,6.74,7.12,6.36
2013,Kazakhstan,KAZ,Caucasus & Central Asia,6.74,6.35,7.13
2013,Uganda,UGA,Sub-Saharan Africa,6.74,6.1,7.38
2012,Ecuador,ECU,Latin America & the Caribbean,6.68,7.33,6.03
2010,Trinidad and Tobago,TTO,Latin America & the Caribbean,6.73,6.84,6.61
2009,Kenya,KEN,Sub-Saharan Africa,6.66,6.42,6.9
2008,Dominican Rep.,DOM,Latin America & the Caribbean,6.67,6.88,6.46
2016,Lebanon,LBN,Middle East & North Africa,6.71,6.43,6.99
2012,Lebanon,LBN,Middle East & North Africa,6.67,6.38,6.96
2012,Mexico,MEX,Latin America & the Caribbean,6.67,6.64,6.71
2012,Timor-Leste,TLS,South Asia,6.67,6.64,6.69
2011,Burkina Faso,BFA,Sub-Saharan Africa,6.75,7.55,5.95
2011,Kenya,KEN,Sub-Saharan Africa,6.75,6.55,6.94
2010,Brunei Darussalam,BRN,South Asia,6.72,6.38,7.07
2010,Mexico,MEX,Latin America & the Caribbean,6.72,6.78,6.67
2010,Zambia,ZMB,Sub-Saharan Africa,6.72,6.09,7.35
2009,Ecuador,ECU,Latin America & the Caribbean,6.65,7.38,5.92
2008,Zambia,ZMB,Sub-Saharan Africa,6.65,6.15,7.15
2016,Guyana,GUY,Latin America & the Caribbean,6.68,7.04,6.31
2015,Turkey,TUR,Middle East & North Africa,6.66,6.47,6.84
2009,Jordan,JOR,Middle East & North Africa,6.62,6.02,7.23
2009,Zambia,ZMB,Sub-Saharan Africa,6.62,6.11,7.13
2008,Kenya,KEN,Sub-Saharan Africa,6.62,6.46,6.77
2016,Malawi,MWI,Sub-Saharan Africa,6.65,7.45,5.86
2015,Thailand,THA,South Asia,6.63,6.45,6.8
2014,Kenya,KEN,Sub-Saharan Africa,6.66,6.21,7.1
2013,Brazil,BRA,Latin America & the Caribbean,6.73,7.4,6.05
2013,Kenya,KEN,Sub-Saharan Africa,6.73,6.35,7.12
2011,Haiti,HTI,Latin America & the Caribbean,6.74,7.19,6.29
2008,Kuwait,KWT,Middle East & North Africa,6.59,6.16,7.03
2016,Thailand,THA,South Asia,6.62,6.4,6.85
2015,Liberia,LBR,Sub-Saharan Africa,6.62,6.37,6.87
2014,Sierra Leone,SLE,Sub-Saharan Africa,6.64,7.29,6
2012,Burkina Faso,BFA,Sub-Saharan Africa,6.63,7.44,5.81
2011,Mexico,MEX,Latin America & the Caribbean,6.72,6.76,6.68
2011,Tanzania,TZA,Sub-Saharan Africa,6.72,6.68,6.76
2010,United Arab Emirates,ARE,Middle East & North Africa,6.71,5.86,7.56
2009,Malaysia,MYS,South Asia,6.57,6.55,6.6
2009,Vietnam,VNM,South Asia,6.57,6.68,6.45
2008,Jordan,JOR,Middle East & North Africa,6.56,5.95,7.17
2008,Madagascar,MDG,Sub-Saharan Africa,6.56,7.04,6.07
2016,Kyrgyz Republic,KGZ,Caucasus & Central Asia,6.59,6.25,6.93
2015,Malawi,MWI,Sub-Saharan Africa,6.61,7.46,5.76
2014,Pap. New Guinea,PNG,Oceania,6.62,6.95,6.28
2013,Malawi,MWI,Sub-Saharan Africa,6.72,7.51,5.92
2012,Bahrain,BHR,Middle East & North Africa,6.59,5.85,7.33
2012,Pap. New Guinea,PNG,Oceania,6.59,6.28,6.91
2010,Guyana,GUY,Latin America & the Caribbean,6.7,7.19,6.21
2016,Cote d'Ivoire,CIV,Sub-Saharan Africa,6.53,7.06,6
2016,Lesotho,LSO,Sub-Saharan Africa,6.53,6.69,6.38
2015,Madagascar,MDG,Sub-Saharan Africa,6.6,6.89,6.31
2014,Kyrgyz Republic,KGZ,Caucasus & Central Asia,6.61,6.25,6.96
2013,Zambia,ZMB,Sub-Saharan Africa,6.7,6.44,6.95
2011,Ecuador,ECU,Latin America & the Caribbean,6.68,7.48,5.88
2011,Honduras,HND,Latin America & the Caribbean,6.68,6.07,7.28
2011,Kazakhstan,KAZ,Caucasus & Central Asia,6.68,6.39,6.97
2010,Jordan,JOR,Middle East & North Africa,6.69,5.94,7.45
2010,Kenya,KEN,Sub-Saharan Africa,6.69,6.46,6.92
2009,Madagascar,MDG,Sub-Saharan Africa,6.55,6.82,6.28
2008,Russia,RUS,Eastern Europe,6.53,6.53,6.52
2015,Lesotho,LSO,Sub-Saharan Africa,6.59,6.68,6.49
2014,Thailand,THA,South Asia,6.59,6.57,6.62
2013,India,IND,South Asia,6.66,6.97,6.36
2012,Tanzania,TZA,Sub-Saharan Africa,6.58,6.54,6.62
2009,Benin,BEN,Sub-Saharan Africa,6.49,6.87,6.1
2009,India,IND,South Asia,6.49,6.59,6.39
2008,India,IND,South Asia,6.52,6.57,6.47
2016,Tanzania,TZA,Sub-Saharan Africa,6.52,6.13,6.92
2015,Lebanon,LBN,Middle East & North Africa,6.56,6.12,7.01
2015,Malaysia,MYS,South Asia,6.56,5.97,7.15
2015,Tanzania,TZA,Sub-Saharan Africa,6.56,6.19,6.92
2014,Guyana,GUY,Latin America & the Caribbean,6.58,6.95,6.21
2014,Lebanon,LBN,Middle East & North Africa,6.58,6.18,6.98
2013,"Gambia, The",GMB,Sub-Saharan Africa,6.62,5.93,7.32
2012,Argentina,ARG,Latin America & the Caribbean,6.57,8.1,5.04
2010,Ecuador,ECU,Latin America & the Caribbean,6.64,7.41,5.87
2008,Uganda,UGA,Sub-Saharan Africa,6.5,5.78,7.21
2016,Madagascar,MDG,Sub-Saharan Africa,6.51,6.84,6.19
2016,Qatar,QAT,Middle East & North Africa,6.51,5.53,7.49
2013,Qatar,QAT,Middle East & North Africa,6.61,5.69,7.54
2012,Colombia,COL,Latin America & the Caribbean,6.56,6.4,6.72
2012,Malaysia,MYS,South Asia,6.56,6.28,6.85
2011,Colombia,COL,Latin America & the Caribbean,6.67,6.53,6.82
2011,Malaysia,MYS,South Asia,6.67,6.49,6.86
2010,Haiti,HTI,Latin America & the Caribbean,6.62,7.02,6.21
2010,Madagascar,MDG,Sub-Saharan Africa,6.62,6.82,6.41
2009,United Arab Emirates,ARE,Middle East & North Africa,6.48,5.56,7.4
2008,Benin,BEN,Sub-Saharan Africa,6.49,6.99,5.99
2014,Tunisia,TUN,Middle East & North Africa,6.57,6.67,6.48
2013,Malaysia,MYS,South Asia,6.6,6.13,7.07
2009,Russia,RUS,Eastern Europe,6.45,6.47,6.43
2008,Oman,OMN,Middle East & North Africa,6.47,5.85,7.08
2016,Senegal,SEN,Sub-Saharan Africa,6.5,6.77,6.22
2015,Kyrgyz Republic,KGZ,Caucasus & Central Asia,6.51,6.21,6.81
2015,Qatar,QAT,Middle East & North Africa,6.51,5.59,7.43
2014,"Gambia, The",GMB,Sub-Saharan Africa,6.56,5.78,7.35
2014,Tanzania,TZA,Sub-Saharan Africa,6.56,6.36,6.76
2013,Tajikistan,TJK,Caucasus & Central Asia,6.59,6.63,6.55
2012,Haiti,HTI,Latin America & the Caribbean,6.52,7.05,6
2012,Honduras,HND,Latin America & the Caribbean,6.52,5.88,7.16
2012,Uganda,UGA,Sub-Saharan Africa,6.52,5.76,7.28
2011,"Gambia, The",GMB,Sub-Saharan Africa,6.62,6.19,7.04
2010,Kuwait,KWT,Middle East & North Africa,6.6,6.24,6.95
2010,Sri Lanka,LKA,South Asia,6.6,6.57,6.63
2009,Tanzania,TZA,Sub-Saharan Africa,6.44,6.46,6.42
2008,Malaysia,MYS,South Asia,6.45,6.3,6.61
2016,Liberia,LBR,Sub-Saharan Africa,6.48,6.4,6.56
2013,Argentina,ARG,Latin America & the Caribbean,6.57,8.26,4.88
2013,Colombia,COL,Latin America & the Caribbean,6.57,6.47,6.67
2013,Timor-Leste,TLS,South Asia,6.57,6.49,6.64
2011,Tajikistan,TJK,Caucasus & Central Asia,6.6,6.82,6.39
2009,Uganda,UGA,Sub-Saharan Africa,6.41,5.46,7.36
2008,Vietnam,VNM,South Asia,6.42,6.65,6.19
2016,Argentina,ARG,Latin America & the Caribbean,6.47,8.1,4.84
2016,Turkey,TUR,Middle East & North Africa,6.47,6.09,6.84
2015,Argentina,ARG,Latin America & the Caribbean,6.5,8.03,4.98
2015,Senegal,SEN,Sub-Saharan Africa,6.5,6.84,6.15
2014,Ecuador,ECU,Latin America & the Caribbean,6.52,7.39,5.66
2014,Lesotho,LSO,Sub-Saharan Africa,6.52,6.56,6.47
2014,Senegal,SEN,Sub-Saharan Africa,6.52,6.81,6.23
2011,Benin,BEN,Sub-Saharan Africa,6.59,7.17,6
2011,Pap. New Guinea,PNG,Oceania,6.59,6.36,6.83
2010,Tanzania,TZA,Sub-Saharan Africa,6.59,6.48,6.7
2009,Niger,NER,Sub-Saharan Africa,6.38,7.05,5.7
2008,Azerbaijan,AZE,Caucasus & Central Asia,6.37,6.59,6.15
2012,Kuwait,KWT,Middle East & North Africa,6.51,6.1,6.93
2010,Malaysia,MYS,South Asia,6.58,6.3,6.85
2009,Morocco,MAR,Middle East & North Africa,6.36,6.46,6.26
2009,Oman,OMN,Middle East & North Africa,6.36,5.59,7.13
2008,Tanzania,TZA,Sub-Saharan Africa,6.34,6.48,6.2
2016,Tunisia,TUN,Middle East & North Africa,6.43,6.58,6.29
2015,Sierra Leone,SLE,Sub-Saharan Africa,6.48,7.18,5.78
2013,Bahrain,BHR,Middle East & North Africa,6.54,5.74,7.33
2013,Honduras,HND,Latin America & the Caribbean,6.54,5.96,7.13
2012,"Gambia, The",GMB,Sub-Saharan Africa,6.48,6.08,6.87
2012,Russia,RUS,Eastern Europe,6.48,6.3,6.65
2011,Kuwait,KWT,Middle East & North Africa,6.58,6.23,6.93
2010,Niger,NER,Sub-Saharan Africa,6.55,7.19,5.91
2008,Morocco,MAR,Middle East & North Africa,6.29,6.36,6.22
2016,India,IND,South Asia,6.41,6.2,6.63
2016,Malaysia,MYS,South Asia,6.41,5.9,6.92
2015,Tunisia,TUN,Middle East & North Africa,6.47,6.6,6.33
2014,Timor-Leste,TLS,South Asia,6.5,6.32,6.68
2011,Tunisia,TUN,Middle East & North Africa,6.56,6.15,6.97
2010,Russia,RUS,Eastern Europe,6.52,6.49,6.54
2010,Uganda,UGA,Sub-Saharan Africa,6.52,5.61,7.44
2009,Senegal,SEN,Sub-Saharan Africa,6.33,6.62,6.05
2008,Tunisia,TUN,Middle East & North Africa,6.25,5.82,6.68
2015,Cote d'Ivoire,CIV,Sub-Saharan Africa,6.44,6.95,5.93
2015,Laos,LAO,South Asia,6.44,5.92,6.97
2014,Cote d'Ivoire,CIV,Sub-Saharan Africa,6.49,6.97,6
2013,Lebanon,LBN,Middle East & North Africa,6.52,6.07,6.97
2012,Kyrgyz Republic,KGZ,Caucasus & Central Asia,6.47,6.27,6.67
2011,Uganda,UGA,Sub-Saharan Africa,6.55,5.83,7.26
2009,Sierra Leone,SLE,Sub-Saharan Africa,6.28,6.37,6.18
2008,Sierra Leone,SLE,Sub-Saharan Africa,6.24,6.49,5.98
2016,Sierra Leone,SLE,Sub-Saharan Africa,6.4,7.04,5.75
2014,Malaysia,MYS,South Asia,6.47,5.84,7.1
2013,Kuwait,KWT,Middle East & North Africa,6.51,6.19,6.84
2012,Benin,BEN,Sub-Saharan Africa,6.42,7.1,5.74
2012,Oman,OMN,Middle East & North Africa,6.42,5.81,7.04
2011,Russia,RUS,Eastern Europe,6.47,6.38,6.56
2010,Vietnam,VNM,South Asia,6.5,6.68,6.33
2009,Tunisia,TUN,Middle East & North Africa,6.27,5.82,6.71
2008,Senegal,SEN,Sub-Saharan Africa,6.2,6.53,5.87
2016,Laos,LAO,South Asia,6.39,5.86,6.91
2015,Zambia,ZMB,Sub-Saharan Africa,6.43,6.13,6.74
2014,Laos,LAO,South Asia,6.45,5.97,6.92
2013,Senegal,SEN,Sub-Saharan Africa,6.47,6.74,6.2
2011,Morocco,MAR,Middle East & North Africa,6.46,6.46,6.47
2010,India,IND,South Asia,6.48,6.57,6.39
2009,Mali,MLI,Sub-Saharan Africa,6.19,6.33,6.04
2008,Niger,NER,Sub-Saharan Africa,6.17,6.95,5.39
2016,Timor-Leste,TLS,South Asia,6.37,6.19,6.55
2015,India,IND,South Asia,6.41,6.2,6.61
2014,Brazil,BRA,Latin America & the Caribbean,6.44,6.96,5.93
2013,United Arab Emirates,ARE,Middle East & North Africa,6.46,5.24,7.68
2012,Morocco,MAR,Middle East & North Africa,6.38,6.41,6.34
2012,Qatar,QAT,Middle East & North Africa,6.38,5.25,7.5
2011,Kyrgyz Republic,KGZ,Caucasus & Central Asia,6.41,6.19,6.62
2010,Benin,BEN,Sub-Saharan Africa,6.41,6.78,6.05
2010,"Gambia, The",GMB,Sub-Saharan Africa,6.41,5.58,7.24
2009,Azerbaijan,AZE,Caucasus & Central Asia,6.18,6.29,6.06
2008,Nigeria,NGA,Sub-Saharan Africa,6.15,6.27,6.03
2016,"Gambia, The",GMB,Sub-Saharan Africa,6.32,5.3,7.34
2015,"Gambia, The",GMB,Sub-Saharan Africa,6.34,5.46,7.22
2014,United Arab Emirates,ARE,Middle East & North Africa,6.42,5.28,7.56
2013,Kyrgyz Republic,KGZ,Caucasus & Central Asia,6.45,6.15,6.76
2011,Lesotho,LSO,Sub-Saharan Africa,6.39,6.57,6.21
2011,Oman,OMN,Middle East & North Africa,6.39,5.87,6.91
2009,Sri Lanka,LKA,South Asia,6.13,5.91,6.35
2008,Mali,MLI,Sub-Saharan Africa,6.09,6.3,5.89
2016,Zambia,ZMB,Sub-Saharan Africa,6.31,6.01,6.61
2015,Sri Lanka,LKA,South Asia,6.33,6.04,6.63
2014,Oman,OMN,Middle East & North Africa,6.38,5.71,7.05
2013,Russia,RUS,Eastern Europe,6.44,6.27,6.62
2012,Vietnam,VNM,South Asia,6.35,6.29,6.4
2010,Kyrgyz Republic,KGZ,Caucasus & Central Asia,6.4,6.19,6.61
2010,Morocco,MAR,Middle East & North Africa,6.4,6.39,6.41
2009,Burundi,BDI,Sub-Saharan Africa,6.12,6.8,5.43
2008,Mozambique,MOZ,Sub-Saharan Africa,6.03,6.39,5.67
2016,United Arab Emirates,ARE,Middle East & North Africa,6.29,5.07,7.5
2015,Swaziland,SWZ,Sub-Saharan Africa,6.28,6.13,6.44
2015,United Arab Emirates,ARE,Middle East & North Africa,6.28,5.1,7.45
2014,Zambia,ZMB,Sub-Saharan Africa,6.33,5.67,6.99
2013,Mozambique,MOZ,Sub-Saharan Africa,6.41,7.05,5.78
2012,Mozambique,MOZ,Sub-Saharan Africa,6.34,6.74,5.93
2011,Sri Lanka,LKA,South Asia,6.36,5.95,6.77
2009,Mauritania,MRT,Sub-Saharan Africa,5.95,5.87,6.04
2008,China,CHN,East Asia,6,5.72,6.27
2008,Egypt,EGY,Middle East & North Africa,6,5.58,6.43
2016,Ukraine,UKR,Eastern Europe,6.28,6.59,5.98
2014,Tajikistan,TJK,Caucasus & Central Asia,6.32,5.97,6.68
2013,Oman,OMN,Middle East & North Africa,6.39,5.79,6.98
2012,Lesotho,LSO,Sub-Saharan Africa,6.33,6.47,6.19
2011,Mozambique,MOZ,Sub-Saharan Africa,6.33,6.88,5.77
2011,Vietnam,VNM,South Asia,6.33,6.42,6.24
2010,Sierra Leone,SLE,Sub-Saharan Africa,6.35,6.48,6.22
2009,China,CHN,East Asia,5.94,5.57,6.31
2009,Gabon,GAB,Sub-Saharan Africa,5.94,6.08,5.8
2016,Russia,RUS,Eastern Europe,6.27,5.71,6.83
2016,Sri Lanka,LKA,South Asia,6.27,6.04,6.49
2016,Togo,TGO,Sub-Saharan Africa,6.27,6.73,5.82
2015,Brazil,BRA,Latin America & the Caribbean,6.23,6.7,5.75
2014,Russia,RUS,Eastern Europe,6.28,5.97,6.59
2013,Lesotho,LSO,Sub-Saharan Africa,6.38,6.44,6.32
2012,United Arab Emirates,ARE,Middle East & North Africa,6.29,4.87,7.71
2010,Azerbaijan,AZE,Caucasus & Central Asia,6.31,6.65,5.97
2008,Lesotho,LSO,Sub-Saharan Africa,5.95,5.84,6.07
2015,Guinea-Bissau,GNB,Sub-Saharan Africa,6.21,6.83,5.58
2015,Tajikistan,TJK,Caucasus & Central Asia,6.21,5.76,6.65
2014,Kuwait,KWT,Middle East & North Africa,6.26,5.75,6.77
2013,Brunei Darussalam,BRN,South Asia,6.35,5.94,6.75
2012,Tunisia,TUN,Middle East & North Africa,6.27,6.14,6.4
2011,United Arab Emirates,ARE,Middle East & North Africa,6.26,4.84,7.69
2010,Mali,MLI,Sub-Saharan Africa,6.28,6.53,6.04
2009,Bangladesh,BGD,South Asia,5.92,5.53,6.3
2008,Gabon,GAB,Sub-Saharan Africa,5.9,5.94,5.85
2008,Mauritania,MRT,Sub-Saharan Africa,5.9,5.81,5.98
2014,India,IND,South Asia,6.25,6.28,6.23
2013,Morocco,MAR,Middle East & North Africa,6.31,6.24,6.37
2013,Vietnam,VNM,South Asia,6.31,6.25,6.37
2012,Sri Lanka,LKA,South Asia,6.23,5.72,6.73
2011,Niger,NER,Sub-Saharan Africa,6.24,6.69,5.8
2010,Oman,OMN,Middle East & North Africa,6.22,5.43,7.01
2009,Nigeria,NGA,Sub-Saharan Africa,5.89,5.89,5.89
2016,Swaziland,SWZ,Sub-Saharan Africa,6.24,6.02,6.46
2015,Mozambique,MOZ,Sub-Saharan Africa,6.2,6.78,5.63
2015,Togo,TGO,Sub-Saharan Africa,6.2,6.7,5.69
2014,Mozambique,MOZ,Sub-Saharan Africa,6.23,6.71,5.75
2014,Togo,TGO,Sub-Saharan Africa,6.23,6.67,5.79
2012,Senegal,SEN,Sub-Saharan Africa,6.17,6.43,5.9
2011,Qatar,QAT,Middle East & North Africa,6.23,5.23,7.23
2010,Senegal,SEN,Sub-Saharan Africa,6.21,6.46,5.95
2009,Egypt,EGY,Middle East & North Africa,5.88,5.55,6.21
2008,Sri Lanka,LKA,South Asia,5.86,5.46,6.26
2016,Brazil,BRA,Latin America & the Caribbean,6.21,6.67,5.75
2013,Cote d'Ivoire,CIV,Sub-Saharan Africa,6.29,6.68,5.9
2012,Azerbaijan,AZE,Caucasus & Central Asia,6.16,6,6.32
2011,Senegal,SEN,Sub-Saharan Africa,6.18,6.46,5.9
2010,Qatar,QAT,Middle East & North Africa,6.16,4.96,7.35
2009,Lesotho,LSO,Sub-Saharan Africa,5.87,5.71,6.03
2008,Bangladesh,BGD,South Asia,5.8,5.53,6.07
2016,Kuwait,KWT,Middle East & North Africa,6.19,5.63,6.75
2016,Tajikistan,TJK,Caucasus & Central Asia,6.19,5.65,6.72
2016,Vietnam,VNM,South Asia,6.19,5.97,6.42
2015,Morocco,MAR,Middle East & North Africa,6.17,5.98,6.36
2015,Russia,RUS,Eastern Europe,6.17,5.69,6.65
2014,Argentina,ARG,Latin America & the Caribbean,6.21,7.92,4.49
2014,Swaziland,SWZ,Sub-Saharan Africa,6.21,5.95,6.47
2013,Sierra Leone,SLE,Sub-Saharan Africa,6.25,6.38,6.12
2012,Sierra Leone,SLE,Sub-Saharan Africa,6.15,6.02,6.27
2011,Azerbaijan,AZE,Caucasus & Central Asia,6.12,6.09,6.15
2010,Swaziland,SWZ,Sub-Saharan Africa,6.13,5.85,6.41
2009,Mozambique,MOZ,Sub-Saharan Africa,5.86,6.24,5.47
2008,Togo,TGO,Sub-Saharan Africa,5.76,5.86,5.67
2013,Sri Lanka,LKA,South Asia,6.24,5.83,6.64
2012,Cameroon,CMR,Sub-Saharan Africa,6.09,6.13,6.05
2011,Sierra Leone,SLE,Sub-Saharan Africa,6.1,6.01,6.18
2010,Tunisia,TUN,Middle East & North Africa,6.09,5.69,6.49
2009,Guinea-Bissau,GNB,Sub-Saharan Africa,5.83,6.46,5.19
2008,Cote d'Ivoire,CIV,Sub-Saharan Africa,5.7,5.89,5.5
2015,Vietnam,VNM,South Asia,6.16,6.01,6.3
2014,Morocco,MAR,Middle East & North Africa,6.18,6.09,6.28
2013,Swaziland,SWZ,Sub-Saharan Africa,6.2,5.84,6.56
2012,Niger,NER,Sub-Saharan Africa,6.06,6.57,5.55
2011,Mali,MLI,Sub-Saharan Africa,6.09,6.27,5.92
2010,Nigeria,NGA,Sub-Saharan Africa,6,5.88,6.12
2009,Cameroon,CMR,Sub-Saharan Africa,5.79,5.74,5.85
2009,Cote d'Ivoire,CIV,Sub-Saharan Africa,5.79,5.9,5.69
2008,Cameroon,CMR,Sub-Saharan Africa,5.69,5.8,5.57
2008,Guinea-Bissau,GNB,Sub-Saharan Africa,5.69,6.58,4.81
2016,Morocco,MAR,Middle East & North Africa,6.18,5.99,6.37
2015,Oman,OMN,Middle East & North Africa,6.12,5.59,6.64
2014,Sri Lanka,LKA,South Asia,6.17,5.75,6.58
2014,Vietnam,VNM,South Asia,6.17,6.02,6.32
2013,Burundi,BDI,Sub-Saharan Africa,6.16,6.36,5.96
2012,China,CHN,East Asia,6,5.64,6.37
2011,Cameroon,CMR,Sub-Saharan Africa,6.08,6.13,6.03
2010,Mozambique,MOZ,Sub-Saharan Africa,5.95,6.4,5.51
2016,Belarus,BLR,Eastern Europe,6.14,6.06,6.23
2015,Timor-Leste,TLS,South Asia,6.11,5.61,6.6
2013,Tunisia,TUN,Middle East & North Africa,6.14,5.93,6.35
2012,Mali,MLI,Sub-Saharan Africa,5.97,5.94,5.99
2011,China,CHN,East Asia,6.03,5.74,6.32
2011,Swaziland,SWZ,Sub-Saharan Africa,6.03,5.47,6.58
2010,Bangladesh,BGD,South Asia,5.94,5.54,6.35
2010,Egypt,EGY,Middle East & North Africa,5.94,5.54,6.35
2009,Togo,TGO,Sub-Saharan Africa,5.68,5.79,5.57
2008,Burundi,BDI,Sub-Saharan Africa,5.65,6.28,5.01
2016,Oman,OMN,Middle East & North Africa,6.13,5.51,6.76
2015,Kuwait,KWT,Middle East & North Africa,6.02,5.46,6.59
2014,Azerbaijan,AZE,Caucasus & Central Asia,6.11,5.82,6.4
2013,Azerbaijan,AZE,Caucasus & Central Asia,6.09,5.97,6.2
2013,Cameroon,CMR,Sub-Saharan Africa,6.09,6.22,5.95
2013,Togo,TGO,Sub-Saharan Africa,6.09,5.94,6.25
2012,Cote d'Ivoire,CIV,Sub-Saharan Africa,5.96,6.27,5.64
2012,Guinea-Bissau,GNB,Sub-Saharan Africa,5.96,5.95,5.96
2009,"Congo, Rep. Of",COG,Sub-Saharan Africa,5.65,6.4,4.9
2008,"Congo, Rep. Of",COG,Sub-Saharan Africa,5.63,6.57,4.69
2016,Azerbaijan,AZE,Caucasus & Central Asia,6.08,5.68,6.49
2016,Mozambique,MOZ,Sub-Saharan Africa,6.08,6.66,5.5
2015,Nigeria,NGA,Sub-Saharan Africa,6.01,5.63,6.39
2014,Nigeria,NGA,Sub-Saharan Africa,6.05,5.72,6.38
2011,Bangladesh,BGD,South Asia,5.98,5.62,6.34
2010,China,CHN,East Asia,5.91,5.56,6.26
2009,Pakistan,PAK,South Asia,5.6,5.07,6.12
2008,Central Afr. Rep.,CAF,Sub-Saharan Africa,5.48,5.78,5.18
2015,Azerbaijan,AZE,Caucasus & Central Asia,5.97,5.55,6.38
2014,Ukraine,UKR,Eastern Europe,6.04,6.16,5.91
2012,Swaziland,SWZ,Sub-Saharan Africa,5.93,5.41,6.44
2011,Guinea-Bissau,GNB,Sub-Saharan Africa,5.94,6.25,5.62
2010,Cameroon,CMR,Sub-Saharan Africa,5.89,5.7,6.08
2009,Syria,SYR,Middle East & North Africa,5.53,5.27,5.79
2008,Iran,IRN,Middle East & North Africa,5.47,4.88,6.06
2016,Nigeria,NGA,Sub-Saharan Africa,6.07,5.82,6.32
2015,Mali,MLI,Sub-Saharan Africa,5.9,5.97,5.82
2014,Guinea-Bissau,GNB,Sub-Saharan Africa,6,6.66,5.35
2013,China,CHN,East Asia,6.06,5.74,6.39
2012,Bangladesh,BGD,South Asia,5.86,5.48,6.24
2011,Cote d'Ivoire,CIV,Sub-Saharan Africa,5.86,6.03,5.7
2010,Lesotho,LSO,Sub-Saharan Africa,5.88,5.69,6.08
2009,Ethiopia,ETH,Sub-Saharan Africa,5.5,5.22,5.78
2008,Syria,SYR,Middle East & North Africa,5.46,5.3,5.62
2016,Guinea-Bissau,GNB,Sub-Saharan Africa,6.05,6.86,5.25
2015,China,CHN,East Asia,5.88,5.37,6.39
2014,China,CHN,East Asia,5.95,5.52,6.38
2013,Angola,AGO,Sub-Saharan Africa,5.99,6.74,5.25
2012,Angola,AGO,Sub-Saharan Africa,5.83,6.38,5.28
2011,Nigeria,NGA,Sub-Saharan Africa,5.84,5.34,6.34
2010,Gabon,GAB,Sub-Saharan Africa,5.8,6.06,5.54
2009,"Congo, Dem. R.",COD,Sub-Saharan Africa,5.44,5.61,5.28
2008,Pakistan,PAK,South Asia,5.4,4.83,5.97
2016,Mali,MLI,Sub-Saharan Africa,5.93,6.06,5.8
2015,"Congo, Rep. Of",COG,Sub-Saharan Africa,5.84,6.86,4.81
2015,Ukraine,UKR,Eastern Europe,5.84,6.29,5.4
2014,Bangladesh,BGD,South Asia,5.9,5.49,6.3
2013,Mali,MLI,Sub-Saharan Africa,5.96,5.97,5.95
2012,Mauritania,MRT,Sub-Saharan Africa,5.75,5.83,5.68
2011,Mauritania,MRT,Sub-Saharan Africa,5.83,5.88,5.78
2010,Mauritania,MRT,Sub-Saharan Africa,5.78,5.8,5.77
2009,Central Afr. Rep.,CAF,Sub-Saharan Africa,5.41,5.61,5.2
2008,Ethiopia,ETH,Sub-Saharan Africa,5.36,5.37,5.35
2016,China,CHN,East Asia,5.91,5.35,6.46
2014,Mali,MLI,Sub-Saharan Africa,5.83,5.85,5.81
2014,Niger,NER,Sub-Saharan Africa,5.83,5.88,5.79
2013,Niger,NER,Sub-Saharan Africa,5.95,6.22,5.69
2012,Gabon,GAB,Sub-Saharan Africa,5.73,6.09,5.37
2011,Gabon,GAB,Sub-Saharan Africa,5.8,6.16,5.44
2010,Burundi,BDI,Sub-Saharan Africa,5.77,6.35,5.18
2009,Myanmar,MMR,South Asia,5.36,6.5,4.22
2008,"Congo, Dem. R.",COD,Sub-Saharan Africa,5.35,5.54,5.16
2016,"Congo, Rep. Of",COG,Sub-Saharan Africa,5.9,6.78,5.02
2015,Bangladesh,BGD,South Asia,5.81,5.29,6.33
2013,Nigeria,NGA,Sub-Saharan Africa,5.92,5.45,6.39
2012,Nigeria,NGA,Sub-Saharan Africa,5.72,5.23,6.22
2011,Egypt,EGY,Middle East & North Africa,5.74,5.29,6.18
2010,Cote d'Ivoire,CIV,Sub-Saharan Africa,5.75,5.82,5.69
2009,Chad,TCD,Sub-Saharan Africa,5.35,5.55,5.16
2008,Venezuela,VEN,Latin America & the Caribbean,5.26,6.3,4.22
2016,Niger,NER,Sub-Saharan Africa,5.86,5.71,6.01
2015,Angola,AGO,Sub-Saharan Africa,5.79,6.13,5.44
2014,Brunei Darussalam,BRN,South Asia,5.78,4.68,6.89
2013,Bangladesh,BGD,South Asia,5.83,5.29,6.37
2012,Egypt,EGY,Middle East & North Africa,5.67,5.2,6.14
2011,Burundi,BDI,Sub-Saharan Africa,5.67,6.11,5.23
2010,"Congo, Rep. Of",COG,Sub-Saharan Africa,5.7,6.67,4.74
2009,Venezuela,VEN,Latin America & the Caribbean,5.28,6.21,4.36
2008,Chad,TCD,Sub-Saharan Africa,5.21,5.59,4.84
2016,Bangladesh,BGD,South Asia,5.8,5.3,6.3
2016,Brunei Darussalam,BRN,South Asia,5.8,4.66,6.93
2015,Brunei Darussalam,BRN,South Asia,5.69,4.61,6.77
2014,"Congo, Rep. Of",COG,Sub-Saharan Africa,5.73,6.77,4.69
2013,Gabon,GAB,Sub-Saharan Africa,5.8,6.19,5.42
2012,Burundi,BDI,Sub-Saharan Africa,5.62,6.03,5.22
2011,Pakistan,PAK,South Asia,5.66,5.09,6.23
2010,Guinea-Bissau,GNB,Sub-Saharan Africa,5.69,6.33,5.05
2009,Angola,AGO,Sub-Saharan Africa,5.21,5.27,5.14
2008,Algeria,DZA,Middle East & North Africa,5.15,5.15,5.16
2015,Niger,NER,Sub-Saharan Africa,5.67,5.6,5.74
2014,Cameroon,CMR,Sub-Saharan Africa,5.72,5.54,5.9
2013,Guinea,GIN,Sub-Saharan Africa,5.77,5.88,5.65
2012,Ethiopia,ETH,Sub-Saharan Africa,5.54,5.51,5.58
2012,Pakistan,PAK,South Asia,5.54,4.93,6.15
2011,Syria,SYR,Middle East & North Africa,5.63,5.08,6.18
2010,Togo,TGO,Sub-Saharan Africa,5.67,5.8,5.55
2009,Algeria,DZA,Middle East & North Africa,5.16,5.14,5.18
2008,Myanmar,MMR,South Asia,4.96,6.05,3.86
2016,Pakistan,PAK,South Asia,5.66,5.32,6
2015,Guinea,GIN,Sub-Saharan Africa,5.65,5.56,5.74
2014,Saudi Arabia,SAU,Middle East & North Africa,5.64,4.72,6.55
2013,Ethiopia,ETH,Sub-Saharan Africa,5.69,5.86,5.53
2011,Saudi Arabia,SAU,Middle East & North Africa,5.55,4.44,6.67
2010,Saudi Arabia,SAU,Middle East & North Africa,5.66,4.61,6.71
2009,Iran,IRN,Middle East & North Africa,5.13,4.35,5.91
2008,Zimbabwe,ZWE,Sub-Saharan Africa,4.94,5.32,4.55
2016,Guinea,GIN,Sub-Saharan Africa,5.65,5.37,5.93
2015,Pakistan,PAK,South Asia,5.61,5.3,5.92
2014,Angola,AGO,Sub-Saharan Africa,5.62,6.11,5.13
2013,"Congo, Rep. Of",COG,Sub-Saharan Africa,5.66,6.78,4.55
2012,Togo,TGO,Sub-Saharan Africa,5.42,5.5,5.33
2011,Togo,TGO,Sub-Saharan Africa,5.53,5.61,5.45
2010,Chad,TCD,Sub-Saharan Africa,5.57,5.7,5.44
2009,Zimbabwe,ZWE,Sub-Saharan Africa,4.93,5.36,4.5
2008,Angola,AGO,Sub-Saharan Africa,4.82,5.24,4.41
2016,Angola,AGO,Sub-Saharan Africa,5.64,6.11,5.17
2015,Zimbabwe,ZWE,Sub-Saharan Africa,5.58,5.16,6.01
2014,Myanmar,MMR,South Asia,5.58,5.8,5.36
2013,Guinea-Bissau,GNB,Sub-Saharan Africa,5.63,6.19,5.07
2012,Saudi Arabia,SAU,Middle East & North Africa,5.4,4.38,6.42
2011,"Congo, Rep. Of",COG,Sub-Saharan Africa,5.39,6.3,4.48
2011,Ethiopia,ETH,Sub-Saharan Africa,5.39,5.62,5.16
2010,Syria,SYR,Middle East & North Africa,5.55,5.15,5.96
2016,Zimbabwe,ZWE,Sub-Saharan Africa,5.62,5.17,6.06
2015,Gabon,GAB,Sub-Saharan Africa,5.55,5.32,5.78
2014,Guinea,GIN,Sub-Saharan Africa,5.49,5.37,5.62
2013,Mauritania,MRT,Sub-Saharan Africa,5.47,5.35,5.6
2013,Pakistan,PAK,South Asia,5.47,4.79,6.14
2012,"Congo, Rep. Of",COG,Sub-Saharan Africa,5.33,6.28,4.39
2010,Pakistan,PAK,South Asia,5.5,4.83,6.17
2016,Cameroon,CMR,Sub-Saharan Africa,5.58,5.33,5.82
2016,Gabon,GAB,Sub-Saharan Africa,5.58,5.32,5.84
2015,Cameroon,CMR,Sub-Saharan Africa,5.46,5.13,5.79
2014,Chad,TCD,Sub-Saharan Africa,5.48,5.99,4.97
2012,Venezuela,VEN,Latin America & the Caribbean,5.23,6.63,3.82
2011,Angola,AGO,Sub-Saharan Africa,5.35,5.55,5.16
2010,Ethiopia,ETH,Sub-Saharan Africa,5.47,5.35,5.6
2015,Myanmar,MMR,South Asia,5.45,5.58,5.32
2014,Pakistan,PAK,South Asia,5.47,5.05,5.89
2014,Zimbabwe,ZWE,Sub-Saharan Africa,5.47,5.31,5.63
2013,Saudi Arabia,SAU,Middle East & North Africa,5.46,4.36,6.55
2012,Chad,TCD,Sub-Saharan Africa,5.13,5.55,4.72
2011,Venezuela,VEN,Latin America & the Caribbean,5.33,6.75,3.91
2010,"Congo, Dem. R.",COD,Sub-Saharan Africa,5.45,5.52,5.38
2016,Saudi Arabia,SAU,Middle East & North Africa,5.48,4.44,6.52
2015,Chad,TCD,Sub-Saharan Africa,5.43,5.63,5.23
2013,Egypt,EGY,Middle East & North Africa,5.35,4.7,6.01
2013,Zimbabwe,ZWE,Sub-Saharan Africa,5.35,5.4,5.3
2012,Algeria,DZA,Middle East & North Africa,5.1,5.24,4.95
2011,Chad,TCD,Sub-Saharan Africa,5.31,5.66,4.97
2010,"Yemen, Rep.",YEM,Middle East & North Africa,5.43,4.73,6.12
2016,Chad,TCD,Sub-Saharan Africa,5.47,5.51,5.44
2016,Mauritania,MRT,Sub-Saharan Africa,5.47,4.99,5.96
2015,Mauritania,MRT,Sub-Saharan Africa,5.37,5.04,5.7
2014,Gabon,GAB,Sub-Saharan Africa,5.4,5.23,5.57
2014,Mauritania,MRT,Sub-Saharan Africa,5.4,5.13,5.68
2012,Zimbabwe,ZWE,Sub-Saharan Africa,5.08,5.11,5.06
2011,Algeria,DZA,Middle East & North Africa,5.21,5.36,5.06
2010,Angola,AGO,Sub-Saharan Africa,5.24,5.18,5.3
2015,Ethiopia,ETH,Sub-Saharan Africa,5.35,5.16,5.55
2013,Central Afr. Rep.,CAF,Sub-Saharan Africa,5.3,4.89,5.71
2012,Myanmar,MMR,South Asia,5.05,5.1,5
2011,Zimbabwe,ZWE,Sub-Saharan Africa,5.05,5.17,4.93
2010,Central Afr. Rep.,CAF,Sub-Saharan Africa,5.21,5.39,5.04
2016,Myanmar,MMR,South Asia,5.44,5.46,5.42
2015,Saudi Arabia,SAU,Middle East & North Africa,5.32,4.4,6.24
2014,Ethiopia,ETH,Sub-Saharan Africa,5.32,5.18,5.46
2013,Chad,TCD,Sub-Saharan Africa,5.28,5.56,4.99
2012,Syria,SYR,Middle East & North Africa,4.87,4.46,5.27
2011,"Congo, Dem. R.",COD,Sub-Saharan Africa,5.04,4.8,5.28
2010,Iran,IRN,Middle East & North Africa,5.2,4.49,5.91
2016,Ethiopia,ETH,Sub-Saharan Africa,5.4,5.06,5.73
2015,"Congo, Dem. R.",COD,Sub-Saharan Africa,5.3,4.82,5.78
2014,Central Afr. Rep.,CAF,Sub-Saharan Africa,5.31,5.45,5.16
2013,Myanmar,MMR,South Asia,5.19,5.03,5.35
2012,Central Afr. Rep.,CAF,Sub-Saharan Africa,4.83,4.73,4.93
2011,Central Afr. Rep.,CAF,Sub-Saharan Africa,4.97,4.88,5.06
2010,Venezuela,VEN,Latin America & the Caribbean,5.16,6.35,3.96
2016,"Congo, Dem. R.",COD,Sub-Saharan Africa,5.31,4.95,5.67
2015,Central Afr. Rep.,CAF,Sub-Saharan Africa,5.12,5.62,4.63
2014,Burundi,BDI,Sub-Saharan Africa,5.3,4.64,5.97
2013,Algeria,DZA,Middle East & North Africa,5.09,5.15,5.04
2012,"Congo, Dem. R.",COD,Sub-Saharan Africa,4.81,4.42,5.2
2011,Iran,IRN,Middle East & North Africa,4.84,4.05,5.63
2010,Algeria,DZA,Middle East & North Africa,5.14,5.21,5.07
2016,Central Afr. Rep.,CAF,Sub-Saharan Africa,5.29,5.47,5.11
2015,Algeria,DZA,Middle East & North Africa,5.08,5.34,4.83
2014,Algeria,DZA,Middle East & North Africa,5.19,5.38,5.01
2013,Venezuela,VEN,Latin America & the Caribbean,5.01,6.71,3.32
2012,"Yemen, Rep.",YEM,Middle East & North Africa,4.78,3.38,6.17
2011,Myanmar,MMR,South Asia,4.78,5.12,4.44
2010,Myanmar,MMR,South Asia,5.03,6.01,4.06
2016,Iran,IRN,Middle East & North Africa,5.28,4.53,6.03
2015,Burundi,BDI,Sub-Saharan Africa,5.06,4.24,5.87
2014,Egypt,EGY,Middle East & North Africa,5.04,4.3,5.78
2013,"Congo, Dem. R.",COD,Sub-Saharan Africa,4.91,4.46,5.36
2012,Iran,IRN,Middle East & North Africa,4.44,3.92,4.96
2011,"Yemen, Rep.",YEM,Middle East & North Africa,4.71,3.23,6.19
2010,Zimbabwe,ZWE,Sub-Saharan Africa,4.91,5.36,4.46
2016,Burundi,BDI,Sub-Saharan Africa,5.17,4.41,5.92
2015,Iran,IRN,Middle East & North Africa,4.95,4.49,5.4
2014,"Congo, Dem. R.",COD,Sub-Saharan Africa,5.03,4.83,5.23
2013,Libya,LBY,Middle East & North Africa,4.89,5,4.78
2016,Algeria,DZA,Middle East & North Africa,5.14,5.28,4.99
2015,Egypt,EGY,Middle East & North Africa,4.81,3.85,5.77
2014,"Yemen, Rep.",YEM,Middle East & North Africa,4.63,2.52,6.74
2013,"Yemen, Rep.",YEM,Middle East & North Africa,4.81,3.3,6.33
2016,Egypt,EGY,Middle East & North Africa,4.81,3.89,5.72
2015,Libya,LBY,Middle East & North Africa,4.43,3.97,4.89
2014,Venezuela,VEN,Latin America & the Caribbean,4.57,5.87,3.28
2013,Iran,IRN,Middle East & North Africa,4.56,4.09,5.04
2016,Sudan,SDN,Sub-Saharan Africa,4.8,4.25,5.36
2015,Venezuela,VEN,Latin America & the Caribbean,4.24,5.52,2.96
2014,Iran,IRN,Middle East & North Africa,4.56,4.23,4.89
2013,Syria,SYR,Middle East & North Africa,4.1,4.12,4.07
2016,Libya,LBY,Middle East & North Africa,4.31,3.88,4.74
2015,"Yemen, Rep.",YEM,Middle East & North Africa,4.2,2.34,6.07
2014,Libya,LBY,Middle East & North Africa,4.51,4.22,4.81
2016,Iraq,IRQ,Middle East & North Africa,4.26,3.12,5.4
2015,Syria,SYR,Middle East & North Africa,3.91,2.86,4.96
2014,Syria,SYR,Middle East & North Africa,4.02,3.08,4.97
2016,"Yemen, Rep.",YEM,Middle East & North Africa,4.25,2.17,6.34
2016,Venezuela,VEN,Latin America & the Caribbean,4.2,5.52,2.88
2016,Syria,SYR,Middle East & North Africa,3.77,2.51,5.02
2015,Belarus,BLR,Eastern Europe,-,-,-
2015,Iraq,IRQ,Middle East & North Africa,-,-,-
2015,Sudan,SDN,Sub-Saharan Africa,-,-,-
2014,Belarus,BLR,Eastern Europe,-,-,-
2014,Iraq,IRQ,Middle East & North Africa,-,-,-
2014,Sudan,SDN,Sub-Saharan Africa,-,-,-
2013,Belarus,BLR,Eastern Europe,-,-,-
2013,Iraq,IRQ,Middle East & North Africa,-,-,-
2013,Laos,LAO,South Asia,-,-,-
2013,Liberia,LBR,Sub-Saharan Africa,-,-,-
2013,Sudan,SDN,Sub-Saharan Africa,-,-,-
2012,Belarus,BLR,Eastern Europe,-,-,-
2012,Bhutan,BTN,South Asia,-,-,-
2012,Guinea,GIN,Sub-Saharan Africa,-,-,-
2012,Iraq,IRQ,Middle East & North Africa,-,-,-
2012,Laos,LAO,South Asia,-,-,-
2012,Liberia,LBR,Sub-Saharan Africa,-,-,-
2012,Libya,LBY,Middle East & North Africa,-,-,-
2012,Seychelles,SYC,Sub-Saharan Africa,-,-,-
2012,Sudan,SDN,Sub-Saharan Africa,-,-,-
2011,Belarus,BLR,Eastern Europe,-,-,-
2011,Bhutan,BTN,South Asia,-,-,-
2011,Guinea,GIN,Sub-Saharan Africa,-,-,-
2011,Iraq,IRQ,Middle East & North Africa,-,-,-
2011,Laos,LAO,South Asia,-,-,-
2011,Liberia,LBR,Sub-Saharan Africa,-,-,-
2011,Libya,LBY,Middle East & North Africa,-,-,-
2011,Seychelles,SYC,Sub-Saharan Africa,-,-,-
2011,Sudan,SDN,Sub-Saharan Africa,-,-,-
2010,Belarus,BLR,Eastern Europe,-,-,-
2010,Bhutan,BTN,South Asia,-,-,-
2010,Guinea,GIN,Sub-Saharan Africa,-,-,-
2010,Iraq,IRQ,Middle East & North Africa,-,-,-
2010,Laos,LAO,South Asia,-,-,-
2010,Liberia,LBR,Sub-Saharan Africa,-,-,-
2010,Libya,LBY,Middle East & North Africa,-,-,-
2010,Seychelles,SYC,Sub-Saharan Africa,-,-,-
2010,Sudan,SDN,Sub-Saharan Africa,-,-,-
2009,Belarus,BLR,Eastern Europe,-,-,-
2009,Bhutan,BTN,South Asia,-,-,-
2009,Brunei Darussalam,BRN,South Asia,-,-,-
2009,Cambodia,KHM,South Asia,-,-,-
2009,Cape Verde,CPV,Sub-Saharan Africa,-,-,-
2009,"Gambia, The",GMB,Sub-Saharan Africa,-,-,-
2009,Guinea,GIN,Sub-Saharan Africa,-,-,-
2009,Iraq,IRQ,Middle East & North Africa,-,-,-
2009,Laos,LAO,South Asia,-,-,-
2009,Lebanon,LBN,Middle East & North Africa,-,-,-
2009,Liberia,LBR,Sub-Saharan Africa,-,-,-
2009,Libya,LBY,Middle East & North Africa,-,-,-
2009,Qatar,QAT,Middle East & North Africa,-,-,-
2009,Saudi Arabia,SAU,Middle East & North Africa,-,-,-
2009,Seychelles,SYC,Sub-Saharan Africa,-,-,-
2009,Sudan,SDN,Sub-Saharan Africa,-,-,-
2009,Suriname,SUR,Latin America & the Caribbean,-,-,-
2009,Swaziland,SWZ,Sub-Saharan Africa,-,-,-
2009,Tajikistan,TJK,Caucasus & Central Asia,-,-,-
2009,Timor-Leste,TLS,South Asia,-,-,-
2009,"Yemen, Rep.",YEM,Middle East & North Africa,-,-,-
2008,Belarus,BLR,Eastern Europe,-,-,-
2008,Bhutan,BTN,South Asia,-,-,-
2008,Brunei Darussalam,BRN,South Asia,-,-,-
2008,Cambodia,KHM,South Asia,-,-,-
2008,Cape Verde,CPV,Sub-Saharan Africa,-,-,-
2008,"Gambia, The",GMB,Sub-Saharan Africa,-,-,-
2008,Guinea,GIN,Sub-Saharan Africa,-,-,-
2008,Iraq,IRQ,Middle East & North Africa,-,-,-
2008,Laos,LAO,South Asia,-,-,-
2008,Lebanon,LBN,Middle East & North Africa,-,-,-
2008,Liberia,LBR,Sub-Saharan Africa,-,-,-
2008,Libya,LBY,Middle East & North Africa,-,-,-
2008,Qatar,QAT,Middle East & North Africa,-,-,-
2008,Saudi Arabia,SAU,Middle East & North Africa,-,-,-
2008,Seychelles,SYC,Sub-Saharan Africa,-,-,-
2008,Sudan,SDN,Sub-Saharan Africa,-,-,-
2008,Suriname,SUR,Latin America & the Caribbean,-,-,-
2008,Swaziland,SWZ,Sub-Saharan Africa,-,-,-
2008,Tajikistan,TJK,Caucasus & Central Asia,-,-,-
2008,Timor-Leste,TLS,South Asia,-,-,-
2008,"Yemen, Rep.",YEM,Middle East & North Africa,-,-,-
